EESchema Schematic File Version 4
EELAYER 30 0
EELAYER END
$Descr A4 11693 8268
encoding utf-8
Sheet 1 4
Title ""
Date ""
Rev ""
Comp ""
Comment1 ""
Comment2 ""
Comment3 ""
Comment4 ""
$EndDescr
$Comp
L power:GND #PWR03
U 1 1 5F54FAA3
P 9350 3800
F 0 "#PWR03" H 9350 3550 50  0001 C CNN
F 1 "GND" V 9355 3672 50  0000 R CNN
F 2 "" H 9350 3800 50  0001 C CNN
F 3 "" H 9350 3800 50  0001 C CNN
	1    9350 3800
	0    1    1    0   
$EndComp
Wire Wire Line
	9550 4200 9000 4200
Text Label 9000 4200 0    50   ~ 0
ANY_ACT
Text Label 10700 4400 2    50   ~ 0
RING_OPER
Wire Wire Line
	10700 3600 10050 3600
Wire Wire Line
	9000 3600 9550 3600
Text Label 10700 3600 2    50   ~ 0
TRUNK_A
Text Label 9000 3600 0    50   ~ 0
TRUNK_B
Text Label 9000 4300 0    50   ~ 0
ANY_OFFHK
Text Label 9000 3700 0    50   ~ 0
EN_OPER
Text Label 9000 4500 0    50   ~ 0
TONE_A
Text Label 10700 4500 2    50   ~ 0
TONE_B
$Comp
L Mechanical:MountingHole_Pad H1
U 1 1 5FA9EAE0
P 5100 7550
F 0 "H1" H 5000 7507 50  0000 R CNN
F 1 "MountingHole_Pad" H 5000 7598 50  0000 R CNN
F 2 "MountingHole:MountingHole_3.2mm_M3_Pad" H 5100 7550 50  0001 C CNN
F 3 "~" H 5100 7550 50  0001 C CNN
	1    5100 7550
	-1   0    0    1   
$EndComp
$Comp
L power:+24V #PWR01
U 1 1 5FA9EAEA
P 5100 7350
F 0 "#PWR01" H 5100 7200 50  0001 C CNN
F 1 "+24V" H 5115 7523 50  0000 C CNN
F 2 "" H 5100 7350 50  0001 C CNN
F 3 "" H 5100 7350 50  0001 C CNN
	1    5100 7350
	1    0    0    -1  
$EndComp
Wire Wire Line
	5100 7350 5100 7450
$Comp
L Connector_Generic:Conn_02x10_Odd_Even J1
U 1 1 5FBAA9C8
P 9750 4000
F 0 "J1" H 9800 4617 50  0000 C CNN
F 1 "Conn_02x10_Odd_Even" H 9800 4526 50  0000 C CNN
F 2 "Connector_IDC:IDC-Header_2x10_P2.54mm_Horizontal" H 9750 4000 50  0001 C CNN
F 3 "~" H 9750 4000 50  0001 C CNN
	1    9750 4000
	1    0    0    -1  
$EndComp
Wire Wire Line
	9550 3700 9000 3700
$Comp
L power:GND #PWR06
U 1 1 5FE2363F
P 10250 3800
F 0 "#PWR06" H 10250 3550 50  0001 C CNN
F 1 "GND" V 10255 3672 50  0000 R CNN
F 2 "" H 10250 3800 50  0001 C CNN
F 3 "" H 10250 3800 50  0001 C CNN
	1    10250 3800
	0    -1   -1   0   
$EndComp
Wire Wire Line
	10250 3800 10150 3800
Wire Wire Line
	9550 3800 9350 3800
Wire Wire Line
	9000 4500 9550 4500
Wire Wire Line
	10050 4500 10700 4500
Wire Wire Line
	9000 4300 9550 4300
Text Label 9000 4100 0    50   ~ 0
EN_SEL
Wire Wire Line
	9000 4100 9550 4100
Wire Wire Line
	9550 3900 9450 3900
Wire Wire Line
	9550 4000 9450 4000
Wire Wire Line
	9450 4000 9450 3900
Connection ~ 9450 3900
Wire Wire Line
	9450 3900 9350 3900
Wire Wire Line
	10050 4000 10150 4000
Wire Wire Line
	10150 4000 10150 3900
Wire Wire Line
	10050 3900 10150 3900
Connection ~ 10150 3900
Wire Wire Line
	10150 3900 10250 3900
$Comp
L power:+24V #PWR07
U 1 1 5FF33216
P 10250 3900
F 0 "#PWR07" H 10250 3750 50  0001 C CNN
F 1 "+24V" V 10265 4028 50  0000 L CNN
F 2 "" H 10250 3900 50  0001 C CNN
F 3 "" H 10250 3900 50  0001 C CNN
	1    10250 3900
	0    1    1    0   
$EndComp
$Comp
L power:+24V #PWR04
U 1 1 5FF3A423
P 9350 3900
F 0 "#PWR04" H 9350 3750 50  0001 C CNN
F 1 "+24V" V 9365 4028 50  0000 L CNN
F 2 "" H 9350 3900 50  0001 C CNN
F 3 "" H 9350 3900 50  0001 C CNN
	1    9350 3900
	0    -1   -1   0   
$EndComp
Wire Wire Line
	10050 3700 10150 3700
Wire Wire Line
	10150 3700 10150 3800
Connection ~ 10150 3800
Wire Wire Line
	10150 3800 10050 3800
Text Label 9050 2300 0    50   ~ 0
75VAC_A
Text Label 9050 2200 0    50   ~ 0
75VAC_B
$Comp
L Connector_Generic:Conn_01x08 J2
U 1 1 5F60F008
P 9800 1900
F 0 "J2" H 9880 1892 50  0000 L CNN
F 1 "Conn_01x08" H 9880 1801 50  0000 L CNN
F 2 "Connector_PinHeader_2.54mm:PinHeader_1x08_P2.54mm_Horizontal" H 9800 1900 50  0001 C CNN
F 3 "~" H 9800 1900 50  0001 C CNN
	1    9800 1900
	1    0    0    -1  
$EndComp
Text Label 9050 1600 0    50   ~ 0
24VAC
$Sheet
S 4200 2500 650  500 
U 5F7621E3
F0 "24VAC Generator" 50
F1 "Bell-24VAC_Gen.sch" 50
F2 "24VAC" O R 4850 2600 50 
F3 "75VAC_A" U R 4850 2800 50 
F4 "75VAC_B" U R 4850 2900 50 
$EndSheet
$Sheet
S 3200 4250 950  1300
U 5F76F146
F0 "Ringer" 50
F1 "Bell-Ringer.sch" 50
F2 "TRUNK_A" B R 4150 4350 50 
F3 "TRUNK_B" B R 4150 4450 50 
F4 "75VAC_A" I R 4150 4650 50 
F5 "75VAC_B" I R 4150 4750 50 
F6 "ANY_ACT" I R 4150 4950 50 
F7 "EN_SEL" O R 4150 5150 50 
F8 "EN_OPER" O R 4150 5250 50 
F9 "EN_LIN_BIAS" O R 4150 5350 50 
F10 "EN_OPER_BIAS" O R 4150 5450 50 
F11 "RING_OPER" I R 4150 5050 50 
$EndSheet
Wire Wire Line
	4850 2600 5350 2600
Text Label 5350 2600 2    50   ~ 0
24VAC
Wire Wire Line
	4850 2900 5350 2900
Wire Wire Line
	4850 2800 5350 2800
Text Label 5350 2900 2    50   ~ 0
75VAC_B
Text Label 5350 2800 2    50   ~ 0
75VAC_A
Text Label 4850 4950 2    50   ~ 0
ANY_ACT
Text Label 4850 5050 2    50   ~ 0
RING_OPER
Text Label 4850 5150 2    50   ~ 0
EN_SEL
Text Label 4850 5250 2    50   ~ 0
EN_OPER
Wire Wire Line
	4150 4950 4850 4950
Wire Wire Line
	4850 5050 4150 5050
Wire Wire Line
	4150 5150 4850 5150
Wire Wire Line
	4850 5250 4150 5250
Wire Wire Line
	4150 4750 4850 4750
Wire Wire Line
	4150 4650 4850 4650
Wire Wire Line
	4150 4450 4850 4450
Wire Wire Line
	4150 4350 4850 4350
Text Label 4850 4650 2    50   ~ 0
75VAC_A
Text Label 4850 4750 2    50   ~ 0
75VAC_B
Text Label 4850 4350 2    50   ~ 0
TRUNK_A
Text Label 4850 4450 2    50   ~ 0
TRUNK_B
Wire Wire Line
	9050 2200 9600 2200
Wire Wire Line
	9600 2300 9050 2300
$Comp
L power:+24V #PWR05
U 1 1 5F6B4A47
P 9400 2000
F 0 "#PWR05" H 9400 1850 50  0001 C CNN
F 1 "+24V" V 9415 2128 50  0000 L CNN
F 2 "" H 9400 2000 50  0001 C CNN
F 3 "" H 9400 2000 50  0001 C CNN
	1    9400 2000
	0    -1   -1   0   
$EndComp
Wire Wire Line
	9600 2100 9500 2100
Wire Wire Line
	9500 2100 9500 2000
Wire Wire Line
	9500 1900 9600 1900
Wire Wire Line
	9400 2000 9500 2000
Connection ~ 9500 2000
Wire Wire Line
	9500 2000 9500 1900
Wire Wire Line
	9500 2000 9600 2000
$Comp
L power:GND #PWR02
U 1 1 5F6BA61E
P 9350 1800
F 0 "#PWR02" H 9350 1550 50  0001 C CNN
F 1 "GND" V 9355 1672 50  0000 R CNN
F 2 "" H 9350 1800 50  0001 C CNN
F 3 "" H 9350 1800 50  0001 C CNN
	1    9350 1800
	0    1    1    0   
$EndComp
Wire Wire Line
	9350 1800 9500 1800
Wire Wire Line
	9600 1700 9500 1700
Wire Wire Line
	9500 1700 9500 1800
Connection ~ 9500 1800
Wire Wire Line
	9500 1800 9600 1800
Wire Wire Line
	9050 1600 9600 1600
Wire Wire Line
	10050 4100 10700 4100
Wire Wire Line
	10050 4200 10700 4200
Wire Wire Line
	10050 4400 10700 4400
Text Label 10700 4100 2    50   ~ 0
EN_LIN_BIAS
Text Label 10700 4200 2    50   ~ 0
EN_OPER_BIAS
Wire Wire Line
	4150 5350 4850 5350
Wire Wire Line
	4150 5450 4850 5450
Text Label 4850 5350 2    50   ~ 0
EN_LIN_BIAS
Text Label 4850 5450 2    50   ~ 0
EN_OPER_BIAS
$EndSCHEMATC
