EESchema Schematic File Version 4
EELAYER 30 0
EELAYER END
$Descr A4 11693 8268
encoding utf-8
Sheet 2 4
Title ""
Date ""
Rev ""
Comp ""
Comment1 ""
Comment2 ""
Comment3 ""
Comment4 ""
$EndDescr
$Comp
L power:GND #PWR?
U 1 1 5F76469B
P 7350 4000
AR Path="/5F76469B" Ref="#PWR?"  Part="1" 
AR Path="/5F7621E3/5F76469B" Ref="#PWR019"  Part="1" 
F 0 "#PWR019" H 7350 3750 50  0001 C CNN
F 1 "GND" H 7355 3827 50  0000 C CNN
F 2 "" H 7350 4000 50  0001 C CNN
F 3 "" H 7350 4000 50  0001 C CNN
	1    7350 4000
	1    0    0    -1  
$EndComp
$Comp
L power:+24V #PWR?
U 1 1 5F7646A1
P 7350 2500
AR Path="/5F7646A1" Ref="#PWR?"  Part="1" 
AR Path="/5F7621E3/5F7646A1" Ref="#PWR018"  Part="1" 
F 0 "#PWR018" H 7350 2350 50  0001 C CNN
F 1 "+24V" H 7365 2673 50  0000 C CNN
F 2 "" H 7350 2500 50  0001 C CNN
F 3 "" H 7350 2500 50  0001 C CNN
	1    7350 2500
	1    0    0    -1  
$EndComp
Wire Wire Line
	7350 2500 7350 2800
Wire Wire Line
	7350 3400 7350 4000
$Comp
L Device:CP C?
U 1 1 5F7646A9
P 8600 3100
AR Path="/5F7646A9" Ref="C?"  Part="1" 
AR Path="/5F7621E3/5F7646A9" Ref="C9"  Part="1" 
F 0 "C9" V 8855 3100 50  0000 C CNN
F 1 "2200u" V 8764 3100 50  0000 C CNN
F 2 "Capacitor_THT:CP_Axial_L30.0mm_D18.0mm_P35.00mm_Horizontal" H 8638 2950 50  0001 C CNN
F 3 "~" H 8600 3100 50  0001 C CNN
	1    8600 3100
	0    1    -1   0   
$EndComp
Wire Wire Line
	8750 3100 8950 3100
Connection ~ 8200 3100
Wire Wire Line
	8200 3100 7750 3100
$Comp
L Device:R R?
U 1 1 5F7646BA
P 6050 3200
AR Path="/5F7646BA" Ref="R?"  Part="1" 
AR Path="/5F7621E3/5F7646BA" Ref="R8"  Part="1" 
F 0 "R8" V 5843 3200 50  0000 C CNN
F 1 "10k" V 5934 3200 50  0000 C CNN
F 2 "Resistor_THT:R_Axial_DIN0207_L6.3mm_D2.5mm_P10.16mm_Horizontal" V 5980 3200 50  0001 C CNN
F 3 "~" H 6050 3200 50  0001 C CNN
	1    6050 3200
	0    1    1    0   
$EndComp
$Comp
L Device:C C?
U 1 1 5F7646C0
P 8200 3750
AR Path="/5F7646C0" Ref="C?"  Part="1" 
AR Path="/5F7621E3/5F7646C0" Ref="C8"  Part="1" 
F 0 "C8" H 8315 3796 50  0000 L CNN
F 1 "220n" H 8315 3705 50  0000 L CNN
F 2 "Capacitor_THT:C_Rect_L7.0mm_W3.5mm_P5.00mm" H 8238 3600 50  0001 C CNN
F 3 "~" H 8200 3750 50  0001 C CNN
	1    8200 3750
	1    0    0    -1  
$EndComp
$Comp
L Device:R R?
U 1 1 5F7646C6
P 8200 3350
AR Path="/5F7646C6" Ref="R?"  Part="1" 
AR Path="/5F7621E3/5F7646C6" Ref="R12"  Part="1" 
F 0 "R12" H 8130 3304 50  0000 R CNN
F 1 "1" H 8130 3395 50  0000 R CNN
F 2 "Resistor_THT:R_Axial_DIN0207_L6.3mm_D2.5mm_P10.16mm_Horizontal" V 8130 3350 50  0001 C CNN
F 3 "~" H 8200 3350 50  0001 C CNN
	1    8200 3350
	-1   0    0    1   
$EndComp
$Comp
L power:GND #PWR?
U 1 1 5F7646CC
P 8200 4000
AR Path="/5F7646CC" Ref="#PWR?"  Part="1" 
AR Path="/5F7621E3/5F7646CC" Ref="#PWR020"  Part="1" 
F 0 "#PWR020" H 8200 3750 50  0001 C CNN
F 1 "GND" H 8205 3827 50  0000 C CNN
F 2 "" H 8200 4000 50  0001 C CNN
F 3 "" H 8200 4000 50  0001 C CNN
	1    8200 4000
	1    0    0    -1  
$EndComp
Wire Wire Line
	8200 3900 8200 4000
Wire Wire Line
	8200 3600 8200 3500
Wire Wire Line
	8200 3200 8200 3100
Wire Wire Line
	6200 3200 6300 3200
Connection ~ 6300 3200
Wire Wire Line
	6300 3200 7150 3200
$Comp
L Device:R R?
U 1 1 5F7646DE
P 7800 2600
AR Path="/5F7646DE" Ref="R?"  Part="1" 
AR Path="/5F7621E3/5F7646DE" Ref="R11"  Part="1" 
F 0 "R11" V 8007 2600 50  0000 C CNN
F 1 "120k" V 7916 2600 50  0000 C CNN
F 2 "Resistor_THT:R_Axial_DIN0207_L6.3mm_D2.5mm_P10.16mm_Horizontal" V 7730 2600 50  0001 C CNN
F 3 "~" H 7800 2600 50  0001 C CNN
	1    7800 2600
	0    1    -1   0   
$EndComp
Wire Wire Line
	7650 2600 6300 2600
Wire Wire Line
	6300 2600 6300 3200
$Comp
L Device:R R?
U 1 1 5F7646E6
P 7050 2800
AR Path="/5F7646E6" Ref="R?"  Part="1" 
AR Path="/5F7621E3/5F7646E6" Ref="R9"  Part="1" 
F 0 "R9" H 6981 2754 50  0000 R CNN
F 1 "100k" H 6981 2845 50  0000 R CNN
F 2 "Resistor_THT:R_Axial_DIN0207_L6.3mm_D2.5mm_P10.16mm_Horizontal" V 6980 2800 50  0001 C CNN
F 3 "~" H 7050 2800 50  0001 C CNN
	1    7050 2800
	1    0    0    1   
$EndComp
$Comp
L Device:R R?
U 1 1 5F7646EC
P 7050 3750
AR Path="/5F7646EC" Ref="R?"  Part="1" 
AR Path="/5F7621E3/5F7646EC" Ref="R10"  Part="1" 
F 0 "R10" H 6981 3704 50  0000 R CNN
F 1 "100k" H 6981 3795 50  0000 R CNN
F 2 "Resistor_THT:R_Axial_DIN0207_L6.3mm_D2.5mm_P10.16mm_Horizontal" V 6980 3750 50  0001 C CNN
F 3 "~" H 7050 3750 50  0001 C CNN
	1    7050 3750
	1    0    0    1   
$EndComp
$Comp
L power:+24V #PWR?
U 1 1 5F7646F2
P 7050 2500
AR Path="/5F7646F2" Ref="#PWR?"  Part="1" 
AR Path="/5F7621E3/5F7646F2" Ref="#PWR016"  Part="1" 
F 0 "#PWR016" H 7050 2350 50  0001 C CNN
F 1 "+24V" H 7065 2673 50  0000 C CNN
F 2 "" H 7050 2500 50  0001 C CNN
F 3 "" H 7050 2500 50  0001 C CNN
	1    7050 2500
	1    0    0    -1  
$EndComp
Wire Wire Line
	7050 2500 7050 2650
$Comp
L Device:C C?
U 1 1 5F7646F9
P 6550 3750
AR Path="/5F7646F9" Ref="C?"  Part="1" 
AR Path="/5F7621E3/5F7646F9" Ref="C7"  Part="1" 
F 0 "C7" H 6665 3796 50  0000 L CNN
F 1 "220n" H 6665 3705 50  0000 L CNN
F 2 "Capacitor_THT:C_Rect_L7.0mm_W3.5mm_P5.00mm" H 6588 3600 50  0001 C CNN
F 3 "~" H 6550 3750 50  0001 C CNN
	1    6550 3750
	-1   0    0    -1  
$EndComp
$Comp
L Amplifier_Audio:LM1875 U?
U 1 1 5F7646FF
P 7450 3100
AR Path="/5F7646FF" Ref="U?"  Part="1" 
AR Path="/5F7621E3/5F7646FF" Ref="U2"  Part="1" 
F 0 "U2" H 7794 3146 50  0000 L CNN
F 1 "LM1875" H 7794 3055 50  0000 L CNN
F 2 "Package_TO_SOT_THT:TO-220-5_P3.4x3.8mm_StaggerEven_Lead7.13mm_TabDown" H 7450 3100 50  0001 C CIN
F 3 "http://www.ti.com/lit/ds/symlink/lm2904-n.pdf" H 7450 3100 50  0001 C CNN
	1    7450 3100
	1    0    0    -1  
$EndComp
Wire Wire Line
	8200 3100 8450 3100
$Comp
L Amplifier_Operational:LM358 U1
U 1 1 5F7811C7
P 4600 3200
F 0 "U1" H 4600 3567 50  0000 C CNN
F 1 "LM358" H 4600 3476 50  0000 C CNN
F 2 "Package_DIP:DIP-8_W7.62mm_Socket" H 4600 3200 50  0001 C CNN
F 3 "http://www.ti.com/lit/ds/symlink/lm2904-n.pdf" H 4600 3200 50  0001 C CNN
	1    4600 3200
	1    0    0    -1  
$EndComp
$Comp
L Amplifier_Operational:LM358 U1
U 2 1 5F78212A
P 2100 3200
F 0 "U1" H 2100 3567 50  0000 C CNN
F 1 "LM358" H 2100 3476 50  0000 C CNN
F 2 "Package_DIP:DIP-8_W7.62mm_Socket" H 2100 3200 50  0001 C CNN
F 3 "http://www.ti.com/lit/ds/symlink/lm2904-n.pdf" H 2100 3200 50  0001 C CNN
	2    2100 3200
	1    0    0    -1  
$EndComp
$Comp
L Amplifier_Operational:LM358 U1
U 3 1 5F782BB2
P 4800 1650
F 0 "U1" H 4758 1696 50  0000 L CNN
F 1 "LM358" H 4758 1605 50  0000 L CNN
F 2 "Package_DIP:DIP-8_W7.62mm_Socket" H 4800 1650 50  0001 C CNN
F 3 "http://www.ti.com/lit/ds/symlink/lm2904-n.pdf" H 4800 1650 50  0001 C CNN
	3    4800 1650
	1    0    0    -1  
$EndComp
Text HLabel 8950 3100 2    50   Output ~ 0
24VAC
$Comp
L Device:C C?
U 1 1 5F7A3094
P 5650 5350
AR Path="/5F7A3094" Ref="C?"  Part="1" 
AR Path="/5F76F146/5F7A3094" Ref="C?"  Part="1" 
AR Path="/5F7621E3/5F7A3094" Ref="C6"  Part="1" 
F 0 "C6" H 5765 5396 50  0000 L CNN
F 1 "68n" H 5765 5305 50  0000 L CNN
F 2 "Capacitor_THT:C_Rect_L13.0mm_W6.0mm_P10.00mm_FKS3_FKP3_MKS4" H 5688 5200 50  0001 C CNN
F 3 "~" H 5650 5350 50  0001 C CNN
	1    5650 5350
	1    0    0    -1  
$EndComp
Text HLabel 5350 5100 0    50   UnSpc ~ 0
75VAC_A
Text HLabel 5350 5600 0    50   UnSpc ~ 0
75VAC_B
Wire Wire Line
	5350 5100 5650 5100
Wire Wire Line
	5650 5100 5650 5200
Wire Wire Line
	5350 5600 5650 5600
Wire Wire Line
	5650 5600 5650 5500
Wire Wire Line
	6550 3600 6550 3500
Wire Wire Line
	6550 3500 7050 3500
Wire Wire Line
	7050 3500 7050 3000
Wire Wire Line
	7050 3000 7150 3000
Connection ~ 7050 3000
Wire Wire Line
	7050 3000 7050 2950
Wire Wire Line
	7050 3500 7050 3600
Connection ~ 7050 3500
$Comp
L power:GND #PWR?
U 1 1 5F67E06D
P 7050 4000
AR Path="/5F67E06D" Ref="#PWR?"  Part="1" 
AR Path="/5F7621E3/5F67E06D" Ref="#PWR017"  Part="1" 
F 0 "#PWR017" H 7050 3750 50  0001 C CNN
F 1 "GND" H 7055 3827 50  0000 C CNN
F 2 "" H 7050 4000 50  0001 C CNN
F 3 "" H 7050 4000 50  0001 C CNN
	1    7050 4000
	1    0    0    -1  
$EndComp
Wire Wire Line
	7050 4000 7050 3900
$Comp
L power:GND #PWR?
U 1 1 5F681CEC
P 6550 4000
AR Path="/5F681CEC" Ref="#PWR?"  Part="1" 
AR Path="/5F7621E3/5F681CEC" Ref="#PWR015"  Part="1" 
F 0 "#PWR015" H 6550 3750 50  0001 C CNN
F 1 "GND" H 6555 3827 50  0000 C CNN
F 2 "" H 6550 4000 50  0001 C CNN
F 3 "" H 6550 4000 50  0001 C CNN
	1    6550 4000
	1    0    0    -1  
$EndComp
Wire Wire Line
	6550 4000 6550 3900
Wire Wire Line
	8200 2600 8200 3100
Wire Wire Line
	7950 2600 8200 2600
$Comp
L power:+24V #PWR?
U 1 1 5F68EFEA
P 4700 1150
AR Path="/5F68EFEA" Ref="#PWR?"  Part="1" 
AR Path="/5F7621E3/5F68EFEA" Ref="#PWR012"  Part="1" 
F 0 "#PWR012" H 4700 1000 50  0001 C CNN
F 1 "+24V" H 4715 1323 50  0000 C CNN
F 2 "" H 4700 1150 50  0001 C CNN
F 3 "" H 4700 1150 50  0001 C CNN
	1    4700 1150
	1    0    0    -1  
$EndComp
$Comp
L power:GND #PWR?
U 1 1 5F68F6CC
P 4700 2150
AR Path="/5F68F6CC" Ref="#PWR?"  Part="1" 
AR Path="/5F7621E3/5F68F6CC" Ref="#PWR013"  Part="1" 
F 0 "#PWR013" H 4700 1900 50  0001 C CNN
F 1 "GND" H 4705 1977 50  0000 C CNN
F 2 "" H 4700 2150 50  0001 C CNN
F 3 "" H 4700 2150 50  0001 C CNN
	1    4700 2150
	1    0    0    -1  
$EndComp
Wire Wire Line
	4700 2150 4700 2050
Wire Wire Line
	4700 1350 4700 1250
$Comp
L Device:CP C?
U 1 1 5F698068
P 5350 1650
AR Path="/5F698068" Ref="C?"  Part="1" 
AR Path="/5F7621E3/5F698068" Ref="C4"  Part="1" 
F 0 "C4" V 5605 1650 50  0000 C CNN
F 1 "470u" V 5514 1650 50  0000 C CNN
F 2 "Capacitor_THT:CP_Radial_D12.5mm_P5.00mm" H 5388 1500 50  0001 C CNN
F 3 "~" H 5350 1650 50  0001 C CNN
	1    5350 1650
	1    0    0    -1  
$EndComp
Wire Wire Line
	4700 2050 5350 2050
Wire Wire Line
	5350 2050 5350 1800
Connection ~ 4700 2050
Wire Wire Line
	4700 2050 4700 1950
Wire Wire Line
	4700 1250 5350 1250
Wire Wire Line
	5350 1250 5350 1500
Connection ~ 4700 1250
Wire Wire Line
	4700 1250 4700 1150
Text Notes 8950 2900 0    50   ~ 0
Note:\nOther side of the primary\nwinding goes to +24V.
$Comp
L Device:R R?
U 1 1 5F6E14C9
P 5250 3200
AR Path="/5F6E14C9" Ref="R?"  Part="1" 
AR Path="/5F7621E3/5F6E14C9" Ref="R7"  Part="1" 
F 0 "R7" V 5043 3200 50  0000 C CNN
F 1 "10k" V 5134 3200 50  0000 C CNN
F 2 "Resistor_THT:R_Axial_DIN0207_L6.3mm_D2.5mm_P10.16mm_Horizontal" V 5180 3200 50  0001 C CNN
F 3 "~" H 5250 3200 50  0001 C CNN
	1    5250 3200
	0    1    1    0   
$EndComp
$Comp
L Device:C C?
U 1 1 5F6E1CE1
P 5500 3750
AR Path="/5F6E1CE1" Ref="C?"  Part="1" 
AR Path="/5F7621E3/5F6E1CE1" Ref="C5"  Part="1" 
F 0 "C5" H 5615 3796 50  0000 L CNN
F 1 "1u" H 5615 3705 50  0000 L CNN
F 2 "Capacitor_THT:C_Rect_L7.0mm_W3.5mm_P5.00mm" H 5538 3600 50  0001 C CNN
F 3 "~" H 5500 3750 50  0001 C CNN
	1    5500 3750
	-1   0    0    -1  
$EndComp
$Comp
L power:GND #PWR?
U 1 1 5F6E267B
P 5500 4000
AR Path="/5F6E267B" Ref="#PWR?"  Part="1" 
AR Path="/5F7621E3/5F6E267B" Ref="#PWR014"  Part="1" 
F 0 "#PWR014" H 5500 3750 50  0001 C CNN
F 1 "GND" H 5505 3827 50  0000 C CNN
F 2 "" H 5500 4000 50  0001 C CNN
F 3 "" H 5500 4000 50  0001 C CNN
	1    5500 4000
	1    0    0    -1  
$EndComp
Wire Wire Line
	5500 4000 5500 3900
Wire Wire Line
	5500 3600 5500 3200
Wire Wire Line
	5500 3200 5900 3200
Wire Wire Line
	5400 3200 5500 3200
Connection ~ 5500 3200
Wire Wire Line
	4900 3200 5000 3200
Wire Wire Line
	5000 3200 5000 3500
Wire Wire Line
	5000 3500 4200 3500
Wire Wire Line
	4200 3500 4200 3300
Wire Wire Line
	4200 3300 4300 3300
Connection ~ 5000 3200
Wire Wire Line
	5000 3200 5100 3200
$Comp
L Device:R R?
U 1 1 5F6F74BF
P 3850 3100
AR Path="/5F6F74BF" Ref="R?"  Part="1" 
AR Path="/5F7621E3/5F6F74BF" Ref="R6"  Part="1" 
F 0 "R6" V 3643 3100 50  0000 C CNN
F 1 "120k" V 3734 3100 50  0000 C CNN
F 2 "Resistor_THT:R_Axial_DIN0207_L6.3mm_D2.5mm_P10.16mm_Horizontal" V 3780 3100 50  0001 C CNN
F 3 "~" H 3850 3100 50  0001 C CNN
	1    3850 3100
	0    1    1    0   
$EndComp
$Comp
L Device:R R?
U 1 1 5F6F7B6B
P 3350 3100
AR Path="/5F6F7B6B" Ref="R?"  Part="1" 
AR Path="/5F7621E3/5F6F7B6B" Ref="R5"  Part="1" 
F 0 "R5" V 3143 3100 50  0000 C CNN
F 1 "24k" V 3234 3100 50  0000 C CNN
F 2 "Resistor_THT:R_Axial_DIN0207_L6.3mm_D2.5mm_P10.16mm_Horizontal" V 3280 3100 50  0001 C CNN
F 3 "~" H 3350 3100 50  0001 C CNN
	1    3350 3100
	0    1    1    0   
$EndComp
$Comp
L Device:R R?
U 1 1 5F6F82BE
P 2500 2950
AR Path="/5F6F82BE" Ref="R?"  Part="1" 
AR Path="/5F7621E3/5F6F82BE" Ref="R4"  Part="1" 
F 0 "R4" V 2293 2950 50  0000 C CNN
F 1 "2k7" V 2384 2950 50  0000 C CNN
F 2 "Resistor_THT:R_Axial_DIN0207_L6.3mm_D2.5mm_P10.16mm_Horizontal" V 2430 2950 50  0001 C CNN
F 3 "~" H 2500 2950 50  0001 C CNN
	1    2500 2950
	-1   0    0    1   
$EndComp
$Comp
L Device:R R?
U 1 1 5F6F8DB0
P 2100 3500
AR Path="/5F6F8DB0" Ref="R?"  Part="1" 
AR Path="/5F7621E3/5F6F8DB0" Ref="R3"  Part="1" 
F 0 "R3" V 1893 3500 50  0000 C CNN
F 1 "270k" V 1984 3500 50  0000 C CNN
F 2 "Resistor_THT:R_Axial_DIN0207_L6.3mm_D2.5mm_P10.16mm_Horizontal" V 2030 3500 50  0001 C CNN
F 3 "~" H 2100 3500 50  0001 C CNN
	1    2100 3500
	0    1    -1   0   
$EndComp
$Comp
L Device:R R?
U 1 1 5F6F94DA
P 1300 2850
AR Path="/5F6F94DA" Ref="R?"  Part="1" 
AR Path="/5F7621E3/5F6F94DA" Ref="R1"  Part="1" 
F 0 "R1" V 1093 2850 50  0000 C CNN
F 1 "4k7" V 1184 2850 50  0000 C CNN
F 2 "Resistor_THT:R_Axial_DIN0207_L6.3mm_D2.5mm_P10.16mm_Horizontal" V 1230 2850 50  0001 C CNN
F 3 "~" H 1300 2850 50  0001 C CNN
	1    1300 2850
	1    0    0    1   
$EndComp
$Comp
L Device:R R?
U 1 1 5F6F9BFD
P 1300 3700
AR Path="/5F6F9BFD" Ref="R?"  Part="1" 
AR Path="/5F7621E3/5F6F9BFD" Ref="R2"  Part="1" 
F 0 "R2" V 1093 3700 50  0000 C CNN
F 1 "4k7" V 1184 3700 50  0000 C CNN
F 2 "Resistor_THT:R_Axial_DIN0207_L6.3mm_D2.5mm_P10.16mm_Horizontal" V 1230 3700 50  0001 C CNN
F 3 "~" H 1300 3700 50  0001 C CNN
	1    1300 3700
	1    0    0    1   
$EndComp
$Comp
L Device:C C?
U 1 1 5F700B0E
P 4300 2700
AR Path="/5F700B0E" Ref="C?"  Part="1" 
AR Path="/5F7621E3/5F700B0E" Ref="C3"  Part="1" 
F 0 "C3" H 4415 2746 50  0000 L CNN
F 1 "470n" H 4415 2655 50  0000 L CNN
F 2 "Capacitor_THT:C_Rect_L7.0mm_W3.5mm_P5.00mm" H 4338 2550 50  0001 C CNN
F 3 "~" H 4300 2700 50  0001 C CNN
	1    4300 2700
	0    -1   -1   0   
$EndComp
$Comp
L Device:C C?
U 1 1 5F70156B
P 1700 3750
AR Path="/5F70156B" Ref="C?"  Part="1" 
AR Path="/5F7621E3/5F70156B" Ref="C1"  Part="1" 
F 0 "C1" H 1815 3796 50  0000 L CNN
F 1 "56n" H 1815 3705 50  0000 L CNN
F 2 "Capacitor_THT:C_Rect_L7.0mm_W3.5mm_P5.00mm" H 1738 3600 50  0001 C CNN
F 3 "~" H 1700 3750 50  0001 C CNN
	1    1700 3750
	-1   0    0    -1  
$EndComp
$Comp
L power:GND #PWR?
U 1 1 5F7246C7
P 1700 4000
AR Path="/5F7246C7" Ref="#PWR?"  Part="1" 
AR Path="/5F7621E3/5F7246C7" Ref="#PWR010"  Part="1" 
F 0 "#PWR010" H 1700 3750 50  0001 C CNN
F 1 "GND" H 1705 3827 50  0000 C CNN
F 2 "" H 1700 4000 50  0001 C CNN
F 3 "" H 1700 4000 50  0001 C CNN
	1    1700 4000
	1    0    0    -1  
$EndComp
Wire Wire Line
	1700 4000 1700 3900
Wire Wire Line
	1700 3600 1700 3500
Wire Wire Line
	1700 3300 1800 3300
Wire Wire Line
	1950 3500 1700 3500
Connection ~ 1700 3500
Wire Wire Line
	1700 3500 1700 3300
Wire Wire Line
	2250 3500 2500 3500
Wire Wire Line
	2500 3500 2500 3200
Wire Wire Line
	2500 3200 2400 3200
Wire Wire Line
	1800 3100 1700 3100
Wire Wire Line
	1300 3100 1300 3550
$Comp
L power:GND #PWR?
U 1 1 5F75B0A5
P 1300 4000
AR Path="/5F75B0A5" Ref="#PWR?"  Part="1" 
AR Path="/5F7621E3/5F75B0A5" Ref="#PWR09"  Part="1" 
F 0 "#PWR09" H 1300 3750 50  0001 C CNN
F 1 "GND" H 1305 3827 50  0000 C CNN
F 2 "" H 1300 4000 50  0001 C CNN
F 3 "" H 1300 4000 50  0001 C CNN
	1    1300 4000
	1    0    0    -1  
$EndComp
Wire Wire Line
	1300 4000 1300 3850
$Comp
L power:+24V #PWR?
U 1 1 5F7639F9
P 1300 2500
AR Path="/5F7639F9" Ref="#PWR?"  Part="1" 
AR Path="/5F7621E3/5F7639F9" Ref="#PWR08"  Part="1" 
F 0 "#PWR08" H 1300 2350 50  0001 C CNN
F 1 "+24V" H 1315 2673 50  0000 C CNN
F 2 "" H 1300 2500 50  0001 C CNN
F 3 "" H 1300 2500 50  0001 C CNN
	1    1300 2500
	1    0    0    -1  
$EndComp
Wire Wire Line
	1300 3000 1300 3100
Connection ~ 1300 3100
Wire Wire Line
	1300 2500 1300 2700
Wire Wire Line
	1700 2700 1700 3100
Connection ~ 1700 3100
Wire Wire Line
	1700 3100 1300 3100
Wire Wire Line
	2500 3100 2500 3200
Connection ~ 2500 3200
Wire Wire Line
	2500 2700 1700 2700
Wire Wire Line
	2500 2800 2500 2700
Wire Wire Line
	4450 2700 5000 2700
Wire Wire Line
	5000 2700 5000 3200
Wire Wire Line
	4000 3100 4100 3100
$Comp
L Device:C C?
U 1 1 5F7E3B07
P 4100 3750
AR Path="/5F7E3B07" Ref="C?"  Part="1" 
AR Path="/5F7621E3/5F7E3B07" Ref="C2"  Part="1" 
F 0 "C2" H 4215 3796 50  0000 L CNN
F 1 "47n" H 4215 3705 50  0000 L CNN
F 2 "Capacitor_THT:C_Rect_L7.0mm_W3.5mm_P5.00mm" H 4138 3600 50  0001 C CNN
F 3 "~" H 4100 3750 50  0001 C CNN
	1    4100 3750
	1    0    0    -1  
$EndComp
$Comp
L power:GND #PWR?
U 1 1 5F7E41BC
P 4100 4000
AR Path="/5F7E41BC" Ref="#PWR?"  Part="1" 
AR Path="/5F7621E3/5F7E41BC" Ref="#PWR011"  Part="1" 
F 0 "#PWR011" H 4100 3750 50  0001 C CNN
F 1 "GND" H 4105 3827 50  0000 C CNN
F 2 "" H 4100 4000 50  0001 C CNN
F 3 "" H 4100 4000 50  0001 C CNN
	1    4100 4000
	1    0    0    -1  
$EndComp
Wire Wire Line
	4100 4000 4100 3900
Wire Wire Line
	4100 3600 4100 3100
Connection ~ 4100 3100
Wire Wire Line
	4100 3100 4300 3100
Wire Wire Line
	3500 3100 3600 3100
Wire Wire Line
	4150 2700 3600 2700
Wire Wire Line
	3600 2700 3600 3100
Connection ~ 3600 3100
Wire Wire Line
	3600 3100 3700 3100
Wire Wire Line
	2500 2700 2900 2700
Wire Wire Line
	2900 2700 2900 3100
Wire Wire Line
	2900 3100 3200 3100
Connection ~ 2500 2700
Text Notes 7650 2300 0    50   ~ 0
Note: R11 will need adjustment
$EndSCHEMATC
