EESchema Schematic File Version 4
EELAYER 30 0
EELAYER END
$Descr A4 11693 8268
encoding utf-8
Sheet 3 4
Title ""
Date ""
Rev ""
Comp ""
Comment1 ""
Comment2 ""
Comment3 ""
Comment4 ""
$EndDescr
$Comp
L Relay:FINDER-30.22 KA?
U 1 1 5F774E39
P 3900 4100
AR Path="/5F774E39" Ref="KA?"  Part="1" 
AR Path="/5F76F146/5F774E39" Ref="KA1"  Part="1" 
F 0 "KA1" V 4667 4100 50  0000 C CNN
F 1 "24V" V 4576 4100 50  0000 C CNN
F 2 "Relay_THT:Relay_DPDT_Finder_30.22" H 5250 4070 50  0001 C CNN
F 3 "http://gfinder.findernet.com/assets/Series/354/S30EN.pdf" H 3900 4100 50  0001 C CNN
	1    3900 4100
	1    0    0    -1  
$EndComp
$Comp
L power:+24V #PWR?
U 1 1 5F774E3F
P 3100 2750
AR Path="/5F774E3F" Ref="#PWR?"  Part="1" 
AR Path="/5F76F146/5F774E3F" Ref="#PWR021"  Part="1" 
F 0 "#PWR021" H 3100 2600 50  0001 C CNN
F 1 "+24V" H 3115 2923 50  0000 C CNN
F 2 "" H 3100 2750 50  0001 C CNN
F 3 "" H 3100 2750 50  0001 C CNN
	1    3100 2750
	1    0    0    -1  
$EndComp
$Comp
L power:GND #PWR?
U 1 1 5F774E45
P 3500 4500
AR Path="/5F774E45" Ref="#PWR?"  Part="1" 
AR Path="/5F76F146/5F774E45" Ref="#PWR024"  Part="1" 
F 0 "#PWR024" H 3500 4250 50  0001 C CNN
F 1 "GND" H 3505 4327 50  0000 C CNN
F 2 "" H 3500 4500 50  0001 C CNN
F 3 "" H 3500 4500 50  0001 C CNN
	1    3500 4500
	1    0    0    -1  
$EndComp
$Comp
L Relay:FINDER-30.22 KB?
U 1 1 5F774E4B
P 7900 4550
AR Path="/5F774E4B" Ref="KB?"  Part="1" 
AR Path="/5F76F146/5F774E4B" Ref="KB1"  Part="1" 
F 0 "KB1" V 8667 4550 50  0000 C CNN
F 1 "24V" V 8576 4550 50  0000 C CNN
F 2 "Relay_THT:Relay_DPDT_Finder_30.22" H 9250 4520 50  0001 C CNN
F 3 "http://gfinder.findernet.com/assets/Series/354/S30EN.pdf" H 7900 4550 50  0001 C CNN
	1    7900 4550
	0    1    -1   0   
$EndComp
Wire Wire Line
	3300 2850 3100 2850
Wire Wire Line
	3100 2850 3100 2750
Wire Wire Line
	3700 2750 4200 2750
$Comp
L Switch:SW_SPST SW?
U 1 1 5F774E55
P 3500 3400
AR Path="/5F774E55" Ref="SW?"  Part="1" 
AR Path="/5F76F146/5F774E55" Ref="SW3"  Part="1" 
F 0 "SW3" H 3500 3635 50  0000 C CNN
F 1 "Mute" H 3500 3544 50  0000 C CNN
F 2 "Connector_PinHeader_2.54mm:PinHeader_1x02_P2.54mm_Vertical" H 3500 3400 50  0001 C CNN
F 3 "~" H 3500 3400 50  0001 C CNN
	1    3500 3400
	1    0    0    -1  
$EndComp
$Comp
L Switch:SW_Push_SPDT SW?
U 1 1 5F774E5B
P 3500 2850
AR Path="/5F774E5B" Ref="SW?"  Part="1" 
AR Path="/5F76F146/5F774E5B" Ref="SW2"  Part="1" 
F 0 "SW2" H 3500 3135 50  0000 C CNN
F 1 "Ring" H 3500 3044 50  0000 C CNN
F 2 "Connector_PinHeader_2.54mm:PinHeader_1x03_P2.54mm_Vertical" H 3500 2850 50  0001 C CNN
F 3 "~" H 3500 2850 50  0001 C CNN
	1    3500 2850
	1    0    0    -1  
$EndComp
Wire Wire Line
	3700 3400 3800 3400
Wire Wire Line
	3800 3400 3800 3800
Wire Wire Line
	3700 2950 4000 2950
Wire Wire Line
	4000 2950 4000 3800
Wire Wire Line
	4200 3800 4200 3500
Connection ~ 4200 2750
Wire Wire Line
	4200 2750 4900 2750
$Comp
L power:+24V #PWR?
U 1 1 5F774E68
P 4550 4650
AR Path="/5F774E68" Ref="#PWR?"  Part="1" 
AR Path="/5F76F146/5F774E68" Ref="#PWR025"  Part="1" 
F 0 "#PWR025" H 4550 4500 50  0001 C CNN
F 1 "+24V" H 4565 4823 50  0000 C CNN
F 2 "" H 4550 4650 50  0001 C CNN
F 3 "" H 4550 4650 50  0001 C CNN
	1    4550 4650
	1    0    0    -1  
$EndComp
Wire Wire Line
	4550 4650 4550 4750
Wire Wire Line
	4550 4750 4300 4750
Wire Wire Line
	4300 4750 4300 4400
Wire Wire Line
	3500 4500 3500 4400
Wire Wire Line
	3300 3400 2900 3400
$Comp
L Switch:SW_Push_SPDT SW?
U 1 1 5F774E74
P 3500 1650
AR Path="/5F774E74" Ref="SW?"  Part="1" 
AR Path="/5F76F146/5F774E74" Ref="SW1"  Part="1" 
F 0 "SW1" H 3500 1935 50  0000 C CNN
F 1 "Reset" H 3500 1844 50  0000 C CNN
F 2 "Connector_PinHeader_2.54mm:PinHeader_1x03_P2.54mm_Vertical" H 3500 1650 50  0001 C CNN
F 3 "~" H 3500 1650 50  0001 C CNN
	1    3500 1650
	-1   0    0    -1  
$EndComp
$Comp
L power:+24V #PWR?
U 1 1 5F774E7A
P 3200 1450
AR Path="/5F774E7A" Ref="#PWR?"  Part="1" 
AR Path="/5F76F146/5F774E7A" Ref="#PWR022"  Part="1" 
F 0 "#PWR022" H 3200 1300 50  0001 C CNN
F 1 "+24V" H 3215 1623 50  0000 C CNN
F 2 "" H 3200 1450 50  0001 C CNN
F 3 "" H 3200 1450 50  0001 C CNN
	1    3200 1450
	1    0    0    -1  
$EndComp
$Comp
L power:GND #PWR?
U 1 1 5F774E80
P 3200 1850
AR Path="/5F774E80" Ref="#PWR?"  Part="1" 
AR Path="/5F76F146/5F774E80" Ref="#PWR023"  Part="1" 
F 0 "#PWR023" H 3200 1600 50  0001 C CNN
F 1 "GND" H 3205 1677 50  0000 C CNN
F 2 "" H 3200 1850 50  0001 C CNN
F 3 "" H 3200 1850 50  0001 C CNN
	1    3200 1850
	1    0    0    -1  
$EndComp
Wire Wire Line
	3300 1750 3200 1750
Wire Wire Line
	3200 1750 3200 1850
Wire Wire Line
	3300 1550 3200 1550
Wire Wire Line
	3200 1550 3200 1450
Wire Wire Line
	3700 1650 3950 1650
Wire Wire Line
	7600 4150 7400 4150
Wire Wire Line
	7600 4550 7400 4550
Wire Wire Line
	8500 4050 8200 4050
Wire Wire Line
	8200 4450 8500 4450
$Comp
L power:GND #PWR?
U 1 1 5F774E94
P 8300 5050
AR Path="/5F774E94" Ref="#PWR?"  Part="1" 
AR Path="/5F76F146/5F774E94" Ref="#PWR026"  Part="1" 
F 0 "#PWR026" H 8300 4800 50  0001 C CNN
F 1 "GND" H 8305 4877 50  0000 C CNN
F 2 "" H 8300 5050 50  0001 C CNN
F 3 "" H 8300 5050 50  0001 C CNN
	1    8300 5050
	1    0    0    -1  
$EndComp
Wire Wire Line
	8200 4950 8300 4950
Wire Wire Line
	8300 4950 8300 5050
$Comp
L Device:R R?
U 1 1 5F774E9C
P 7250 4150
AR Path="/5F774E9C" Ref="R?"  Part="1" 
AR Path="/5F76F146/5F774E9C" Ref="R13"  Part="1" 
F 0 "R13" V 7043 4150 50  0000 C CNN
F 1 "100R 2W" V 7134 4150 50  0000 C CNN
F 2 "Resistor_THT:R_Axial_DIN0207_L6.3mm_D2.5mm_P10.16mm_Horizontal" V 7180 4150 50  0001 C CNN
F 3 "~" H 7250 4150 50  0001 C CNN
	1    7250 4150
	0    1    1    0   
$EndComp
$Comp
L Device:R R?
U 1 1 5F774EA2
P 7250 4550
AR Path="/5F774EA2" Ref="R?"  Part="1" 
AR Path="/5F76F146/5F774EA2" Ref="R14"  Part="1" 
F 0 "R14" V 7043 4550 50  0000 C CNN
F 1 "100R 2W" V 7134 4550 50  0000 C CNN
F 2 "Resistor_THT:R_Axial_DIN0207_L6.3mm_D2.5mm_P10.16mm_Horizontal" V 7180 4550 50  0001 C CNN
F 3 "~" H 7250 4550 50  0001 C CNN
	1    7250 4550
	0    1    1    0   
$EndComp
Text HLabel 8500 4050 2    50   BiDi ~ 0
TRUNK_A
Text HLabel 8500 4450 2    50   BiDi ~ 0
TRUNK_B
Text HLabel 6900 4150 0    50   Input ~ 0
75VAC_A
Text HLabel 6900 4550 0    50   Input ~ 0
75VAC_B
Wire Wire Line
	6900 4150 7100 4150
Wire Wire Line
	6900 4550 7100 4550
Wire Wire Line
	3500 3800 3500 3700
Wire Wire Line
	3500 3700 2900 3700
Text HLabel 2900 3700 0    50   Input ~ 0
ANY_ACT
Text HLabel 2900 3400 0    50   Input ~ 0
RING_OPER
Text HLabel 3950 1650 2    50   Output ~ 0
EN_SEL
Text HLabel 4900 2750 2    50   Output ~ 0
EN_OPER
$Comp
L Relay:FINDER-30.22 KB?
U 1 1 5F7CE36D
P 7900 2700
AR Path="/5F7CE36D" Ref="KB?"  Part="1" 
AR Path="/5F76F146/5F7CE36D" Ref="KB2"  Part="1" 
F 0 "KB2" V 8667 2700 50  0000 C CNN
F 1 "24V" V 8576 2700 50  0000 C CNN
F 2 "Relay_THT:Relay_DPDT_Finder_30.22" H 9250 2670 50  0001 C CNN
F 3 "http://gfinder.findernet.com/assets/Series/354/S30EN.pdf" H 7900 2700 50  0001 C CNN
	1    7900 2700
	0    1    -1   0   
$EndComp
Wire Wire Line
	7600 3100 7500 3100
Wire Wire Line
	7500 3100 7500 4950
Wire Wire Line
	7500 4950 7600 4950
$Comp
L power:GND #PWR?
U 1 1 5F7D0C68
P 8300 3200
AR Path="/5F7D0C68" Ref="#PWR?"  Part="1" 
AR Path="/5F76F146/5F7D0C68" Ref="#PWR028"  Part="1" 
F 0 "#PWR028" H 8300 2950 50  0001 C CNN
F 1 "GND" H 8305 3027 50  0000 C CNN
F 2 "" H 8300 3200 50  0001 C CNN
F 3 "" H 8300 3200 50  0001 C CNN
	1    8300 3200
	1    0    0    -1  
$EndComp
Wire Wire Line
	8200 3100 8300 3100
Wire Wire Line
	8300 3100 8300 3200
Wire Wire Line
	7600 2300 7500 2300
Wire Wire Line
	7500 2300 7500 2200
$Comp
L power:+24V #PWR?
U 1 1 5F7D36B2
P 7500 2200
AR Path="/5F7D36B2" Ref="#PWR?"  Part="1" 
AR Path="/5F76F146/5F7D36B2" Ref="#PWR027"  Part="1" 
F 0 "#PWR027" H 7500 2050 50  0001 C CNN
F 1 "+24V" H 7515 2373 50  0000 C CNN
F 2 "" H 7500 2200 50  0001 C CNN
F 3 "" H 7500 2200 50  0001 C CNN
	1    7500 2200
	1    0    0    -1  
$EndComp
Wire Wire Line
	8200 2400 8600 2400
Text HLabel 8800 2400 2    50   Output ~ 0
EN_LIN_BIAS
$Comp
L Device:D D1
U 1 1 5F7D605F
P 4200 3150
F 0 "D1" V 4154 3230 50  0000 L CNN
F 1 "1N4007" V 4245 3230 50  0000 L CNN
F 2 "" H 4200 3150 50  0001 C CNN
F 3 "~" H 4200 3150 50  0001 C CNN
	1    4200 3150
	0    1    1    0   
$EndComp
Wire Wire Line
	4200 3000 4200 2750
$Comp
L Device:D D2
U 1 1 5F7D6E38
P 4850 3500
F 0 "D2" H 4850 3283 50  0000 C CNN
F 1 "1N4007" H 4850 3374 50  0000 C CNN
F 2 "" H 4850 3500 50  0001 C CNN
F 3 "~" H 4850 3500 50  0001 C CNN
	1    4850 3500
	-1   0    0    1   
$EndComp
Wire Wire Line
	4700 3500 4200 3500
Connection ~ 4200 3500
Wire Wire Line
	4200 3500 4200 3300
Wire Wire Line
	5000 3500 8600 3500
Wire Wire Line
	8600 2400 8600 3500
Connection ~ 8600 2400
Wire Wire Line
	8600 2400 8800 2400
Wire Wire Line
	8200 2800 8700 2800
Text HLabel 8800 2800 2    50   Output ~ 0
EN_OPER_BIAS
Wire Wire Line
	7600 2700 7500 2700
Wire Wire Line
	7500 2700 7500 2300
Connection ~ 7500 2300
Wire Wire Line
	4400 3800 4400 3700
Wire Wire Line
	4400 3700 8700 3700
Wire Wire Line
	8700 3700 8700 2800
Connection ~ 8700 2800
Wire Wire Line
	8700 2800 8800 2800
Connection ~ 7500 4950
$Sheet
S 5050 4900 1300 700 
U 5F8CB458
F0 "Pulser" 50
F1 "Bell-Pulser.sch" 50
F2 "RING_EN" O L 5050 5250 50 
F3 "RING_PULSE" O R 6350 5250 50 
$EndSheet
Wire Wire Line
	6350 5250 7500 5250
Wire Wire Line
	7500 5250 7500 4950
Wire Wire Line
	5050 5250 3900 5250
Wire Wire Line
	3900 4400 3900 5250
$EndSCHEMATC
