EESchema Schematic File Version 4
EELAYER 30 0
EELAYER END
$Descr A4 11693 8268
encoding utf-8
Sheet 1 1
Title ""
Date ""
Rev ""
Comp ""
Comment1 ""
Comment2 ""
Comment3 ""
Comment4 ""
$EndDescr
$Comp
L Relay:FINDER-30.22 KH2
U 1 1 5F54BF11
P 3400 2500
F 0 "KH2" H 2770 2454 50  0000 R CNN
F 1 "12V" H 2770 2545 50  0000 R CNN
F 2 "Relay_THT:Relay_DPDT_Finder_30.22" H 4750 2470 50  0001 C CNN
F 3 "http://gfinder.findernet.com/assets/Series/354/S30EN.pdf" H 3400 2500 50  0001 C CNN
	1    3400 2500
	1    0    0    1   
$EndComp
$Comp
L power:GND #PWR014
U 1 1 5F54FAA3
P 9400 1250
F 0 "#PWR014" H 9400 1000 50  0001 C CNN
F 1 "GND" V 9405 1122 50  0000 R CNN
F 2 "" H 9400 1250 50  0001 C CNN
F 3 "" H 9400 1250 50  0001 C CNN
	1    9400 1250
	0    1    1    0   
$EndComp
$Comp
L Connector_Generic:Conn_01x02 J1
U 1 1 5F553866
P 750 1850
F 0 "J1" H 668 2067 50  0000 C CNN
F 1 "Conn_01x02" H 668 1976 50  0000 C CNN
F 2 "Connector_PinHeader_2.54mm:PinHeader_1x02_P2.54mm_Horizontal" H 750 1850 50  0001 C CNN
F 3 "~" H 750 1850 50  0001 C CNN
	1    750  1850
	-1   0    0    -1  
$EndComp
$Comp
L Relay:FINDER-30.22 KS1
U 1 1 5F55F872
P 3300 4000
F 0 "KS1" V 4067 4000 50  0000 C CNN
F 1 "24V" V 3976 4000 50  0000 C CNN
F 2 "Relay_THT:Relay_DPDT_Finder_30.22" H 4650 3970 50  0001 C CNN
F 3 "http://gfinder.findernet.com/assets/Series/354/S30EN.pdf" H 3300 4000 50  0001 C CNN
	1    3300 4000
	0    1    -1   0   
$EndComp
Wire Wire Line
	3000 1850 3000 1600
Wire Wire Line
	3000 1950 3000 2200
Wire Wire Line
	3000 2900 3000 2800
$Comp
L Device:C C1
U 1 1 5F56D90F
P 1100 2750
F 0 "C1" H 1215 2796 50  0000 L CNN
F 1 "4u7" H 1215 2705 50  0000 L CNN
F 2 "Capacitor_THT:C_Rect_L26.5mm_W11.5mm_P22.50mm_MKS4" H 1138 2600 50  0001 C CNN
F 3 "~" H 1100 2750 50  0001 C CNN
	1    1100 2750
	1    0    0    -1  
$EndComp
$Comp
L Device:C C2
U 1 1 5F56DF87
P 1450 2750
F 0 "C2" H 1565 2796 50  0000 L CNN
F 1 "4u7" H 1565 2705 50  0000 L CNN
F 2 "Capacitor_THT:C_Rect_L26.5mm_W11.5mm_P22.50mm_MKS4" H 1488 2600 50  0001 C CNN
F 3 "~" H 1450 2750 50  0001 C CNN
	1    1450 2750
	1    0    0    -1  
$EndComp
$Comp
L Device:R R1
U 1 1 5F56E695
P 750 2750
F 0 "R1" H 820 2796 50  0000 L CNN
F 1 "10k" H 820 2705 50  0000 L CNN
F 2 "Resistor_THT:R_Axial_DIN0207_L6.3mm_D2.5mm_P10.16mm_Horizontal" V 680 2750 50  0001 C CNN
F 3 "~" H 750 2750 50  0001 C CNN
	1    750  2750
	1    0    0    -1  
$EndComp
$Comp
L Device:R R2
U 1 1 5F56EA8A
P 1800 2750
F 0 "R2" H 1870 2796 50  0000 L CNN
F 1 "10k" H 1870 2705 50  0000 L CNN
F 2 "Resistor_THT:R_Axial_DIN0207_L6.3mm_D2.5mm_P10.16mm_Horizontal" V 1730 2750 50  0001 C CNN
F 3 "~" H 1800 2750 50  0001 C CNN
	1    1800 2750
	1    0    0    -1  
$EndComp
Wire Wire Line
	750  2600 750  2500
Wire Wire Line
	750  2500 1100 2500
Wire Wire Line
	1100 2500 1100 2600
Wire Wire Line
	1450 2600 1450 2500
Wire Wire Line
	1450 2500 1800 2500
Wire Wire Line
	1800 2500 1800 2600
Wire Wire Line
	950  1850 1450 1850
Wire Wire Line
	950  1950 1100 1950
Connection ~ 1450 2500
Wire Wire Line
	1450 1850 1450 2500
Connection ~ 1450 1850
Wire Wire Line
	1450 1850 1900 1850
Wire Wire Line
	1100 2500 1100 1950
Connection ~ 1100 2500
Connection ~ 1100 1950
Wire Wire Line
	1100 1950 1900 1950
Wire Wire Line
	1450 2900 1450 3000
Wire Wire Line
	1450 3600 3000 3600
Wire Wire Line
	1800 2900 1800 3000
Wire Wire Line
	1800 3000 1450 3000
Connection ~ 1450 3000
Wire Wire Line
	1450 3000 1450 3600
Wire Wire Line
	750  2900 750  3000
Wire Wire Line
	750  3000 1100 3000
Wire Wire Line
	1100 3000 1100 4000
Wire Wire Line
	1100 4000 3000 4000
Connection ~ 1100 3000
Wire Wire Line
	1100 2900 1100 3000
$Comp
L Relay:FINDER-30.22 KH1
U 1 1 5F54AF47
P 3400 1300
F 0 "KH1" H 2771 1254 50  0000 R CNN
F 1 "12V" H 2771 1345 50  0000 R CNN
F 2 "Relay_THT:Relay_DPDT_Finder_30.22" H 4750 1270 50  0001 C CNN
F 3 "http://gfinder.findernet.com/assets/Series/354/S30EN.pdf" H 3400 1300 50  0001 C CNN
	1    3400 1300
	1    0    0    1   
$EndComp
Text Label 4700 1700 2    50   ~ 0
BELL_RX
$Comp
L power:GND #PWR04
U 1 1 5F54F61A
P 3000 2900
F 0 "#PWR04" H 3000 2650 50  0001 C CNN
F 1 "GND" H 3005 2727 50  0000 C CNN
F 2 "" H 3000 2900 50  0001 C CNN
F 3 "" H 3000 2900 50  0001 C CNN
	1    3000 2900
	1    0    0    -1  
$EndComp
$Comp
L power:GND #PWR05
U 1 1 5F5CE90C
P 3700 4500
F 0 "#PWR05" H 3700 4250 50  0001 C CNN
F 1 "GND" H 3705 4327 50  0000 C CNN
F 2 "" H 3700 4500 50  0001 C CNN
F 3 "" H 3700 4500 50  0001 C CNN
	1    3700 4500
	1    0    0    -1  
$EndComp
Wire Wire Line
	3600 4400 3700 4400
Wire Wire Line
	3700 4400 3700 4500
$Comp
L Device:CP C3
U 1 1 5F5D108E
P 2750 6450
F 0 "C3" H 2868 6496 50  0000 L CNN
F 1 "470u" H 2868 6405 50  0000 L CNN
F 2 "Capacitor_THT:CP_Radial_D12.5mm_P5.00mm" H 2788 6300 50  0001 C CNN
F 3 "~" H 2750 6450 50  0001 C CNN
	1    2750 6450
	1    0    0    -1  
$EndComp
Wire Wire Line
	2750 5950 2750 6300
Connection ~ 2750 5950
$Comp
L power:GND #PWR02
U 1 1 5F5D6AFD
P 2750 6700
F 0 "#PWR02" H 2750 6450 50  0001 C CNN
F 1 "GND" H 2755 6527 50  0000 C CNN
F 2 "" H 2750 6700 50  0001 C CNN
F 3 "" H 2750 6700 50  0001 C CNN
	1    2750 6700
	1    0    0    -1  
$EndComp
Wire Wire Line
	2750 6700 2750 6600
$Comp
L Device:R R3
U 1 1 5F5D2123
P 2350 5950
F 0 "R3" V 2143 5950 50  0000 C CNN
F 1 "270" V 2234 5950 50  0000 C CNN
F 2 "Resistor_THT:R_Axial_DIN0207_L6.3mm_D2.5mm_P10.16mm_Horizontal" V 2280 5950 50  0001 C CNN
F 3 "~" H 2350 5950 50  0001 C CNN
	1    2350 5950
	0    1    1    0   
$EndComp
$Comp
L Device:R R5
U 1 1 5F5F916F
P 6550 1750
F 0 "R5" V 6343 1750 50  0000 C CNN
F 1 "2k7" V 6434 1750 50  0000 C CNN
F 2 "Resistor_THT:R_Axial_DIN0207_L6.3mm_D2.5mm_P10.16mm_Horizontal" V 6480 1750 50  0001 C CNN
F 3 "~" H 6550 1750 50  0001 C CNN
	1    6550 1750
	0    -1   -1   0   
$EndComp
$Comp
L Device:R R4
U 1 1 5F5F789F
P 6550 1550
F 0 "R4" V 6343 1550 50  0000 C CNN
F 1 "2k7" V 6434 1550 50  0000 C CNN
F 2 "Resistor_THT:R_Axial_DIN0207_L6.3mm_D2.5mm_P10.16mm_Horizontal" V 6480 1550 50  0001 C CNN
F 3 "~" H 6550 1550 50  0001 C CNN
	1    6550 1550
	0    -1   1    0   
$EndComp
$Comp
L Device:LED_Dual_AAC D2
U 1 1 5F55A613
P 7100 1650
F 0 "D2" H 7100 2075 50  0000 C CNN
F 1 "LED_Dual_AAC" H 7100 1984 50  0000 C CNN
F 2 "Connector_PinHeader_2.54mm:PinHeader_1x03_P2.54mm_Vertical" H 7100 1650 50  0001 C CNN
F 3 "~" H 7100 1650 50  0001 C CNN
	1    7100 1650
	-1   0    0    -1  
$EndComp
$Comp
L power:GND #PWR011
U 1 1 5F623FC9
P 7500 1800
F 0 "#PWR011" H 7500 1550 50  0001 C CNN
F 1 "GND" H 7505 1627 50  0000 C CNN
F 2 "" H 7500 1800 50  0001 C CNN
F 3 "" H 7500 1800 50  0001 C CNN
	1    7500 1800
	1    0    0    -1  
$EndComp
Wire Wire Line
	7400 1650 7500 1650
Wire Wire Line
	7500 1650 7500 1800
Wire Wire Line
	9600 1650 8950 1650
Text Label 9050 1650 0    50   ~ 0
ANY_ACT
Wire Wire Line
	4700 900  3800 900 
Text Label 4700 900  2    50   ~ 0
~ACT
$Comp
L Device:D D3
U 1 1 5F633DE7
P 8800 1650
F 0 "D3" H 8950 1700 50  0000 C CNN
F 1 "1N4007" H 8750 1550 50  0000 C CNN
F 2 "Diode_THT:D_DO-35_SOD27_P10.16mm_Horizontal" H 8800 1650 50  0001 C CNN
F 3 "~" H 8800 1650 50  0001 C CNN
	1    8800 1650
	-1   0    0    -1  
$EndComp
Wire Wire Line
	8650 1650 8250 1650
$Comp
L Device:D D4
U 1 1 5F6598C9
P 8800 1850
F 0 "D4" H 8950 1900 50  0000 C CNN
F 1 "1N4007" H 8750 1750 50  0000 C CNN
F 2 "Diode_THT:D_DO-35_SOD27_P10.16mm_Horizontal" H 8800 1850 50  0001 C CNN
F 3 "~" H 8800 1850 50  0001 C CNN
	1    8800 1850
	-1   0    0    -1  
$EndComp
Wire Wire Line
	8950 1850 9600 1850
Wire Wire Line
	8650 1850 8250 1850
Text Label 8250 1850 0    50   ~ 0
BELL_RX
Text Label 8250 1650 0    50   ~ 0
ACT
Text Label 9050 1850 0    50   ~ 0
ANY_BELL_RX
$Comp
L Diode_Bridge:B125R D1
U 1 1 5F5598BF
P 5550 4600
F 0 "D1" H 5894 4646 50  0000 L CNN
F 1 "B125R" H 5894 4555 50  0000 L CNN
F 2 "Diode_THT:Diode_Bridge_Round_D9.0mm" H 5700 4725 50  0001 L CNN
F 3 "https://diotec.com/tl_files/diotec/files/pdf/datasheets/b40r.pdf" H 5550 4600 50  0001 C CNN
	1    5550 4600
	1    0    0    -1  
$EndComp
Wire Wire Line
	4800 4050 4800 4550
Wire Wire Line
	4800 5100 5550 5100
Wire Wire Line
	5550 5100 5550 4900
Wire Wire Line
	3600 3500 4350 3500
Wire Wire Line
	3600 3900 3700 3900
Wire Wire Line
	3700 3900 3700 3600
Wire Wire Line
	3700 3600 4350 3600
Text Label 4350 3500 2    50   ~ 0
TRUNK_A
Text Label 4350 3600 2    50   ~ 0
TRUNK_B
Wire Wire Line
	10650 1050 10100 1050
Wire Wire Line
	9050 1050 9600 1050
Text Label 10650 1050 2    50   ~ 0
TRUNK_A
Text Label 9050 1050 0    50   ~ 0
TRUNK_B
$Comp
L Relay:FINDER-30.22 KB1
U 1 1 5F6AE8B5
P 7500 4600
F 0 "KB1" H 6870 4554 50  0000 R CNN
F 1 "24V" H 6870 4645 50  0000 R CNN
F 2 "Relay_THT:Relay_DPDT_Finder_30.22" H 8850 4570 50  0001 C CNN
F 3 "http://gfinder.findernet.com/assets/Series/354/S30EN.pdf" H 7500 4600 50  0001 C CNN
	1    7500 4600
	1    0    0    1   
$EndComp
Wire Wire Line
	7100 4200 7100 4300
Wire Wire Line
	5250 4600 5150 4600
Wire Wire Line
	5150 4600 5150 5000
Wire Wire Line
	5150 5000 6350 5000
Wire Wire Line
	7100 5000 7100 4900
$Comp
L Device:C C4
U 1 1 5F6CCEC6
P 4800 4700
F 0 "C4" H 4685 4654 50  0000 R CNN
F 1 "1u5" H 4685 4745 50  0000 R CNN
F 2 "Capacitor_THT:C_Rect_L18.0mm_W11.0mm_P15.00mm_FKS3_FKP3" H 4838 4550 50  0001 C CNN
F 3 "~" H 4800 4700 50  0001 C CNN
	1    4800 4700
	-1   0    0    1   
$EndComp
Wire Wire Line
	4800 4850 4800 5100
$Comp
L Device:CP C5
U 1 1 5F6E6F5F
P 6350 4600
F 0 "C5" H 6468 4646 50  0000 L CNN
F 1 "100u" H 6468 4555 50  0000 L CNN
F 2 "Capacitor_THT:CP_Radial_D10.0mm_P3.50mm" H 6388 4450 50  0001 C CNN
F 3 "~" H 6350 4600 50  0001 C CNN
	1    6350 4600
	1    0    0    -1  
$EndComp
Wire Wire Line
	6350 4450 6350 4200
Wire Wire Line
	6350 4200 7100 4200
Wire Wire Line
	6350 4750 6350 5000
Connection ~ 6350 5000
Wire Wire Line
	6350 5000 7100 5000
$Comp
L Relay:FINDER-30.22 KB2
U 1 1 5F6F8B29
P 8000 5650
F 0 "KB2" H 7370 5604 50  0000 R CNN
F 1 "24V" H 7370 5695 50  0000 R CNN
F 2 "Relay_THT:Relay_DPDT_Finder_30.22" H 9350 5620 50  0001 C CNN
F 3 "http://gfinder.findernet.com/assets/Series/354/S30EN.pdf" H 8000 5650 50  0001 C CNN
	1    8000 5650
	1    0    0    1   
$EndComp
$Comp
L power:+24V #PWR09
U 1 1 5F6FB527
P 7500 4200
F 0 "#PWR09" H 7500 4050 50  0001 C CNN
F 1 "+24V" H 7515 4373 50  0000 C CNN
F 2 "" H 7500 4200 50  0001 C CNN
F 3 "" H 7500 4200 50  0001 C CNN
	1    7500 4200
	1    0    0    -1  
$EndComp
Wire Wire Line
	7500 4200 7500 4300
Wire Wire Line
	7600 4900 7600 5250
$Comp
L power:GND #PWR010
U 1 1 5F6FFC10
P 7600 6050
F 0 "#PWR010" H 7600 5800 50  0001 C CNN
F 1 "GND" H 7605 5877 50  0000 C CNN
F 2 "" H 7600 6050 50  0001 C CNN
F 3 "" H 7600 6050 50  0001 C CNN
	1    7600 6050
	1    0    0    -1  
$EndComp
Wire Wire Line
	7600 5950 7600 6050
Wire Wire Line
	8100 5950 8100 6350
Wire Wire Line
	8100 6350 7100 6350
Wire Wire Line
	7100 6350 7100 5250
Wire Wire Line
	7100 5250 7600 5250
Connection ~ 7600 5250
Wire Wire Line
	7600 5250 7600 5350
$Comp
L power:+24V #PWR012
U 1 1 5F719341
P 8400 5250
F 0 "#PWR012" H 8400 5100 50  0001 C CNN
F 1 "+24V" H 8415 5423 50  0000 C CNN
F 2 "" H 8400 5250 50  0001 C CNN
F 3 "" H 8400 5250 50  0001 C CNN
	1    8400 5250
	1    0    0    -1  
$EndComp
Wire Wire Line
	8400 5250 8400 5350
Wire Wire Line
	8500 5950 8500 6050
Wire Wire Line
	8500 6050 9000 6050
Text Label 9000 6050 2    50   ~ 0
BELL_RX
Text Label 4700 2900 2    50   ~ 0
ANY_OFFHK
Text Label 9050 1750 0    50   ~ 0
ANY_OFFHK
Text Label 2250 5550 0    50   ~ 0
ANY_OFFHK
$Comp
L power:+24V #PWR01
U 1 1 5F5E5E3C
P 2800 5050
F 0 "#PWR01" H 2800 4900 50  0001 C CNN
F 1 "+24V" H 2815 5223 50  0000 C CNN
F 2 "" H 2800 5050 50  0001 C CNN
F 3 "" H 2800 5050 50  0001 C CNN
	1    2800 5050
	1    0    0    -1  
$EndComp
Text Label 700  5950 0    50   ~ 0
ANY_OFFHK
Wire Wire Line
	3900 1600 3900 1700
Wire Wire Line
	3900 1700 4700 1700
Wire Wire Line
	3800 1000 3800 900 
Text Label 9050 1150 0    50   ~ 0
EN_OPER
Wire Wire Line
	4700 2100 3800 2100
Wire Wire Line
	3800 2100 3800 2200
Wire Wire Line
	4700 2900 3900 2900
Wire Wire Line
	3900 2900 3900 2800
Wire Wire Line
	1200 5950 700  5950
$Comp
L Switch:SW_Push SW1
U 1 1 5F58EBE3
P 1400 5950
F 0 "SW1" H 1400 6235 50  0000 C CNN
F 1 "SEL" H 1400 6144 50  0000 C CNN
F 2 "Connector_PinHeader_2.54mm:PinHeader_1x02_P2.54mm_Vertical" H 1400 6150 50  0001 C CNN
F 3 "~" H 1400 6150 50  0001 C CNN
	1    1400 5950
	1    0    0    -1  
$EndComp
Wire Wire Line
	1600 5950 1700 5950
Connection ~ 1700 5950
Wire Wire Line
	1700 5950 1700 7100
$Comp
L Jumper:Jumper_3_Open JP4
U 1 1 5F8EF71D
P 5000 3800
F 0 "JP4" V 5150 3600 50  0000 L CNN
F 1 "Jumper_3_Open" V 5050 3150 50  0000 L CNN
F 2 "Jumper:SolderJumper-3_P1.3mm_Open_Pad1.0x1.5mm_NumberLabels" H 5000 3800 50  0001 C CNN
F 3 "~" H 5000 3800 50  0001 C CNN
	1    5000 3800
	0    -1   -1   0   
$EndComp
$Comp
L Jumper:Jumper_3_Open JP3
U 1 1 5F8F06EE
P 4800 3800
F 0 "JP3" V 4950 3600 50  0000 L CNN
F 1 "Jumper_3_Open" V 4850 3200 50  0000 L CNN
F 2 "Jumper:SolderJumper-3_P1.3mm_Open_Pad1.0x1.5mm_NumberLabels" H 4800 3800 50  0001 C CNN
F 3 "~" H 4800 3800 50  0001 C CNN
	1    4800 3800
	0    1    -1   0   
$EndComp
Wire Wire Line
	5850 4600 6150 4600
Wire Wire Line
	6150 4600 6150 4200
Wire Wire Line
	6150 4200 6350 4200
Connection ~ 6350 4200
Wire Wire Line
	5550 3250 4800 3250
Wire Wire Line
	4800 3250 4800 3550
Text Label 5550 3350 2    50   ~ 0
TONE_B
Text Label 5550 3250 2    50   ~ 0
TONE_A
Text Label 9050 1950 0    50   ~ 0
TONE_A
Text Label 10650 1950 2    50   ~ 0
TONE_B
$Comp
L Jumper:Jumper_2_Open JP1
U 1 1 5F99749D
P 2100 1850
F 0 "JP1" H 2100 2085 50  0000 C CNN
F 1 "Jumper_2_Open" H 2100 1994 50  0000 C CNN
F 2 "Jumper:SolderJumper-2_P1.3mm_Open_RoundedPad1.0x1.5mm" H 2100 1850 50  0001 C CNN
F 3 "~" H 2100 1850 50  0001 C CNN
	1    2100 1850
	1    0    0    -1  
$EndComp
Wire Wire Line
	2300 1850 3000 1850
$Comp
L Jumper:Jumper_2_Open JP2
U 1 1 5F997B6F
P 2100 1950
F 0 "JP2" H 2100 2200 50  0000 C CNN
F 1 "Jumper_2_Open" H 2100 2100 50  0000 C CNN
F 2 "Jumper:SolderJumper-2_P1.3mm_Open_RoundedPad1.0x1.5mm" H 2100 1950 50  0001 C CNN
F 3 "~" H 2100 1950 50  0001 C CNN
	1    2100 1950
	1    0    0    1   
$EndComp
Wire Wire Line
	2300 1950 3000 1950
Wire Wire Line
	5000 3550 5000 3350
Wire Wire Line
	5000 3350 5550 3350
Wire Wire Line
	5000 4050 5000 4200
Wire Wire Line
	5550 4200 5550 4300
Wire Wire Line
	5000 4200 5550 4200
Wire Wire Line
	5250 4100 5250 3800
Wire Wire Line
	5250 3800 5150 3800
Wire Wire Line
	3600 4100 5250 4100
Wire Wire Line
	3600 3700 3800 3700
Wire Wire Line
	3800 3700 3800 3800
Wire Wire Line
	3800 3800 4650 3800
Text Label 4700 2100 2    50   ~ 0
EN_SEL
$Comp
L Mechanical:MountingHole_Pad H2
U 1 1 5FA97194
P 6100 7550
F 0 "H2" H 6000 7507 50  0000 R CNN
F 1 "MountingHole_Pad" H 6000 7598 50  0000 R CNN
F 2 "MountingHole:MountingHole_3.2mm_M3_Pad" H 6100 7550 50  0001 C CNN
F 3 "~" H 6100 7550 50  0001 C CNN
	1    6100 7550
	-1   0    0    1   
$EndComp
$Comp
L power:+24V #PWR08
U 1 1 5FA9963E
P 6100 7350
F 0 "#PWR08" H 6100 7200 50  0001 C CNN
F 1 "+24V" H 6115 7523 50  0000 C CNN
F 2 "" H 6100 7350 50  0001 C CNN
F 3 "" H 6100 7350 50  0001 C CNN
	1    6100 7350
	1    0    0    -1  
$EndComp
Wire Wire Line
	6100 7350 6100 7450
$Comp
L Mechanical:MountingHole_Pad H1
U 1 1 5FA9EAE0
P 5200 7550
F 0 "H1" H 5100 7507 50  0000 R CNN
F 1 "MountingHole_Pad" H 5100 7598 50  0000 R CNN
F 2 "MountingHole:MountingHole_3.2mm_M3_Pad" H 5200 7550 50  0001 C CNN
F 3 "~" H 5200 7550 50  0001 C CNN
	1    5200 7550
	-1   0    0    1   
$EndComp
$Comp
L power:+24V #PWR07
U 1 1 5FA9EAEA
P 5200 7350
F 0 "#PWR07" H 5200 7200 50  0001 C CNN
F 1 "+24V" H 5215 7523 50  0000 C CNN
F 2 "" H 5200 7350 50  0001 C CNN
F 3 "" H 5200 7350 50  0001 C CNN
	1    5200 7350
	1    0    0    -1  
$EndComp
Wire Wire Line
	5200 7350 5200 7450
Text Label 5900 1550 0    50   ~ 0
ACT
Wire Wire Line
	8000 5150 8000 5350
Wire Wire Line
	7700 5150 8000 5150
Text Label 7700 5150 0    50   ~ 0
~ACT
Text Label 5900 1750 0    50   ~ 0
BELL_RX
$Comp
L Connector_Generic:Conn_02x10_Odd_Even J2
U 1 1 5FBAA9C8
P 9800 1450
F 0 "J2" H 9850 2067 50  0000 C CNN
F 1 "Conn_02x10_Odd_Even" H 9850 1976 50  0000 C CNN
F 2 "Connector_IDC:IDC-Header_2x10_P2.54mm_Horizontal" H 9800 1450 50  0001 C CNN
F 3 "~" H 9800 1450 50  0001 C CNN
	1    9800 1450
	1    0    0    -1  
$EndComp
$Comp
L Relay:FINDER-30.22 KS2
U 1 1 5F585B27
P 3300 5550
F 0 "KS2" V 4067 5550 50  0000 C CNN
F 1 "24V" V 3976 5550 50  0000 C CNN
F 2 "Relay_THT:Relay_DPDT_Finder_30.22" H 4650 5520 50  0001 C CNN
F 3 "http://gfinder.findernet.com/assets/Series/354/S30EN.pdf" H 3300 5550 50  0001 C CNN
	1    3300 5550
	0    1    -1   0   
$EndComp
$Comp
L power:GND #PWR06
U 1 1 5F5CED7C
P 3700 6050
F 0 "#PWR06" H 3700 5800 50  0001 C CNN
F 1 "GND" H 3705 5877 50  0000 C CNN
F 2 "" H 3700 6050 50  0001 C CNN
F 3 "" H 3700 6050 50  0001 C CNN
	1    3700 6050
	1    0    0    -1  
$EndComp
Wire Wire Line
	3600 5950 3700 5950
Wire Wire Line
	3700 5950 3700 6050
Text Label 4100 5050 2    50   ~ 0
ACT
Wire Wire Line
	3600 5250 4100 5250
Text Label 4100 5250 2    50   ~ 0
~ACT
Wire Wire Line
	4100 5050 3600 5050
Wire Wire Line
	4000 7100 4000 5450
Wire Wire Line
	4000 5450 3600 5450
Wire Wire Line
	1700 7100 4000 7100
Wire Wire Line
	2250 5550 3000 5550
Wire Wire Line
	2750 5950 3000 5950
Wire Wire Line
	2800 5150 2800 5050
Wire Wire Line
	2500 5950 2750 5950
Wire Wire Line
	2000 4400 2000 5950
Wire Wire Line
	2000 4400 3000 4400
Connection ~ 2000 5950
Wire Wire Line
	2000 5950 2200 5950
Wire Wire Line
	9600 1150 9050 1150
$Comp
L power:GND #PWR0101
U 1 1 5FE2363F
P 10300 1250
F 0 "#PWR0101" H 10300 1000 50  0001 C CNN
F 1 "GND" V 10305 1122 50  0000 R CNN
F 2 "" H 10300 1250 50  0001 C CNN
F 3 "" H 10300 1250 50  0001 C CNN
	1    10300 1250
	0    -1   -1   0   
$EndComp
Wire Wire Line
	10300 1250 10200 1250
Wire Wire Line
	9600 1250 9400 1250
Wire Wire Line
	9050 1950 9600 1950
Wire Wire Line
	10100 1950 10650 1950
Wire Wire Line
	9050 1750 9600 1750
Text Label 9050 1550 0    50   ~ 0
EN_SEL
Wire Wire Line
	9050 1550 9600 1550
Wire Wire Line
	9600 1350 9500 1350
Wire Wire Line
	9600 1450 9500 1450
Wire Wire Line
	9500 1450 9500 1350
Connection ~ 9500 1350
Wire Wire Line
	9500 1350 9400 1350
Wire Wire Line
	10100 1450 10200 1450
Wire Wire Line
	10200 1450 10200 1350
Wire Wire Line
	10100 1350 10200 1350
Connection ~ 10200 1350
Wire Wire Line
	10200 1350 10300 1350
$Comp
L power:+24V #PWR0102
U 1 1 5FF33216
P 10300 1350
F 0 "#PWR0102" H 10300 1200 50  0001 C CNN
F 1 "+24V" V 10315 1478 50  0000 L CNN
F 2 "" H 10300 1350 50  0001 C CNN
F 3 "" H 10300 1350 50  0001 C CNN
	1    10300 1350
	0    1    1    0   
$EndComp
$Comp
L power:+24V #PWR0103
U 1 1 5FF3A423
P 9400 1350
F 0 "#PWR0103" H 9400 1200 50  0001 C CNN
F 1 "+24V" V 9415 1478 50  0000 L CNN
F 2 "" H 9400 1350 50  0001 C CNN
F 3 "" H 9400 1350 50  0001 C CNN
	1    9400 1350
	0    -1   -1   0   
$EndComp
Wire Wire Line
	10100 1150 10200 1150
Wire Wire Line
	10200 1150 10200 1250
Connection ~ 10200 1250
Wire Wire Line
	10200 1250 10100 1250
Wire Wire Line
	1700 5950 2000 5950
Wire Wire Line
	2800 5150 3000 5150
Wire Wire Line
	5900 1550 6400 1550
Wire Wire Line
	5900 1750 6400 1750
Wire Wire Line
	6700 1550 6800 1550
Wire Wire Line
	6700 1750 6800 1750
$Comp
L Jumper:Jumper_2_Open JP5
U 1 1 5F7E7E39
P 4600 7200
F 0 "JP5" H 4600 7435 50  0000 C CNN
F 1 "Jumper_2_Open" H 4600 7344 50  0000 C CNN
F 2 "Jumper:SolderJumper-2_P1.3mm_Open_RoundedPad1.0x1.5mm" H 4600 7200 50  0001 C CNN
F 3 "~" H 4600 7200 50  0001 C CNN
	1    4600 7200
	1    0    0    -1  
$EndComp
$Comp
L Jumper:Jumper_2_Open JP6
U 1 1 5F7EAA6A
P 4600 7600
F 0 "JP6" H 4600 7835 50  0000 C CNN
F 1 "Jumper_2_Open" H 4600 7744 50  0000 C CNN
F 2 "Jumper:SolderJumper-2_P1.3mm_Open_RoundedPad1.0x1.5mm" H 4600 7600 50  0001 C CNN
F 3 "~" H 4600 7600 50  0001 C CNN
	1    4600 7600
	1    0    0    -1  
$EndComp
$Comp
L Device:D D5
U 1 1 5F8CAAF2
P 2500 900
F 0 "D5" H 2650 950 50  0000 C CNN
F 1 "1N4007" H 2450 800 50  0000 C CNN
F 2 "Diode_THT:D_DO-35_SOD27_P10.16mm_Horizontal" H 2500 900 50  0001 C CNN
F 3 "~" H 2500 900 50  0001 C CNN
	1    2500 900 
	-1   0    0    -1  
$EndComp
Wire Wire Line
	2650 900  3000 900 
Wire Wire Line
	3000 900  3000 1000
Wire Wire Line
	10100 1550 10650 1550
Text Label 10650 1550 2    50   ~ 0
EN_BIAS
Wire Wire Line
	2350 900  1850 900 
Text Label 1850 900  0    50   ~ 0
EN_BIAS
Text Notes 5750 3950 0    50   ~ 0
Note:\nFor FDM mode move C1 and C2 between KS1 and Trunk.\nOtherwise KB1 won't have enough power.
$EndSCHEMATC
