EESchema Schematic File Version 4
EELAYER 30 0
EELAYER END
$Descr A4 11693 8268
encoding utf-8
Sheet 3 3
Title ""
Date ""
Rev ""
Comp ""
Comment1 ""
Comment2 ""
Comment3 ""
Comment4 ""
$EndDescr
$Comp
L Transistor_BJT:PN2222A Q4
U 1 1 5F6726EA
P 4900 4050
F 0 "Q4" H 5090 4096 50  0000 L CNN
F 1 "2N2222A" H 5090 4005 50  0000 L CNN
F 2 "Package_TO_SOT_THT:TO-18-3" H 5100 3975 50  0001 L CIN
F 3 "http://www.fairchildsemi.com/ds/PN/PN2222A.pdf" H 4900 4050 50  0001 L CNN
F 4 "Q" H 4900 4050 50  0001 C CNN "Spice_Primitive"
F 5 "2N2222" H 4900 4050 50  0001 C CNN "Spice_Model"
F 6 "Y" H 4900 4050 50  0001 C CNN "Spice_Netlist_Enabled"
F 7 "2N2222.lib" H 4900 4050 50  0001 C CNN "Spice_Lib_File"
F 8 "3 2 1" H 4900 4050 50  0001 C CNN "Spice_Node_Sequence"
	1    4900 4050
	1    0    0    -1  
$EndComp
$Comp
L power:+24V #PWR023
U 1 1 5F6726EC
P 5000 3250
F 0 "#PWR023" H 5000 3100 50  0001 C CNN
F 1 "+24V" H 5015 3423 50  0000 C CNN
F 2 "" H 5000 3250 50  0001 C CNN
F 3 "" H 5000 3250 50  0001 C CNN
	1    5000 3250
	1    0    0    -1  
$EndComp
Wire Wire Line
	5000 4750 5000 4850
$Comp
L Device:L L2
U 1 1 5F6726ED
P 5000 3500
F 0 "L2" H 5052 3546 50  0000 L CNN
F 1 "120m" H 5052 3455 50  0000 L CNN
F 2 "Inductor_THT:L_Radial_D10.5mm_P5.00mm_Abacron_AISR-01" H 5000 3500 50  0001 C CNN
F 3 "~" H 5000 3500 50  0001 C CNN
	1    5000 3500
	1    0    0    -1  
$EndComp
$Comp
L Device:C C7
U 1 1 5F6726EE
P 5700 4050
F 0 "C7" H 5815 4096 50  0000 L CNN
F 1 "1.5u" H 5815 4005 50  0000 L CNN
F 2 "Capacitor_THT:C_Rect_L7.0mm_W6.0mm_P5.00mm" H 5738 3900 50  0001 C CNN
F 3 "~" H 5700 4050 50  0001 C CNN
	1    5700 4050
	1    0    0    -1  
$EndComp
$Comp
L Device:C C8
U 1 1 5F6726EF
P 5700 4600
F 0 "C8" H 5815 4646 50  0000 L CNN
F 1 "1.5u" H 5815 4555 50  0000 L CNN
F 2 "Capacitor_THT:C_Rect_L7.0mm_W6.0mm_P5.00mm" H 5738 4450 50  0001 C CNN
F 3 "~" H 5700 4600 50  0001 C CNN
	1    5700 4600
	1    0    0    -1  
$EndComp
Wire Wire Line
	5700 4750 5700 4850
Wire Wire Line
	5700 4450 5700 4350
Wire Wire Line
	5000 4250 5000 4350
Wire Wire Line
	5700 4350 5000 4350
Connection ~ 5700 4350
Wire Wire Line
	5700 4350 5700 4200
Connection ~ 5000 4350
Wire Wire Line
	5000 4350 5000 4450
Wire Wire Line
	5000 3850 5000 3750
Wire Wire Line
	5000 3750 5700 3750
Wire Wire Line
	5700 3750 5700 3900
Connection ~ 5000 3750
Wire Wire Line
	5000 3750 5000 3650
Wire Wire Line
	5000 3250 5000 3350
Wire Wire Line
	5700 4350 6300 4350
Wire Wire Line
	5700 4850 5000 4850
Wire Wire Line
	5000 4950 5000 4850
Connection ~ 5000 4850
$Comp
L Device:R R9
U 1 1 5F6664DC
P 5000 4600
F 0 "R9" H 5070 4646 50  0000 L CNN
F 1 "6.2k" H 5070 4555 50  0000 L CNN
F 2 "Resistor_THT:R_Axial_DIN0207_L6.3mm_D2.5mm_P10.16mm_Horizontal" V 4930 4600 50  0001 C CNN
F 3 "~" H 5000 4600 50  0001 C CNN
	1    5000 4600
	1    0    0    -1  
$EndComp
$Comp
L Device:R R10
U 1 1 5F6726F0
P 6800 3500
F 0 "R10" H 6870 3546 50  0000 L CNN
F 1 "750k" H 6870 3455 50  0000 L CNN
F 2 "Resistor_THT:R_Axial_DIN0207_L6.3mm_D2.5mm_P10.16mm_Horizontal" V 6730 3500 50  0001 C CNN
F 3 "~" H 6800 3500 50  0001 C CNN
	1    6800 3500
	1    0    0    -1  
$EndComp
$Comp
L Device:C C9
U 1 1 5F68EBA2
P 6450 4350
F 0 "C9" V 6198 4350 50  0000 C CNN
F 1 "1u" V 6289 4350 50  0000 C CNN
F 2 "Capacitor_THT:C_Rect_L7.0mm_W6.0mm_P5.00mm" H 6488 4200 50  0001 C CNN
F 3 "~" H 6450 4350 50  0001 C CNN
	1    6450 4350
	0    1    1    0   
$EndComp
$Comp
L Device:R R11
U 1 1 5F6726F2
P 6800 4600
F 0 "R11" H 6870 4646 50  0000 L CNN
F 1 "68k" H 6870 4555 50  0000 L CNN
F 2 "Resistor_THT:R_Axial_DIN0207_L6.3mm_D2.5mm_P10.16mm_Horizontal" V 6730 4600 50  0001 C CNN
F 3 "~" H 6800 4600 50  0001 C CNN
	1    6800 4600
	1    0    0    -1  
$EndComp
Wire Wire Line
	6600 4350 6800 4350
Wire Wire Line
	6800 4350 6800 4450
Connection ~ 6800 4350
Wire Wire Line
	6800 4950 6800 4750
$Comp
L power:+24V #PWR025
U 1 1 5F6726F3
P 6800 3250
F 0 "#PWR025" H 6800 3100 50  0001 C CNN
F 1 "+24V" H 6815 3423 50  0000 C CNN
F 2 "" H 6800 3250 50  0001 C CNN
F 3 "" H 6800 3250 50  0001 C CNN
	1    6800 3250
	1    0    0    -1  
$EndComp
Wire Wire Line
	6800 3250 6800 3350
$Comp
L Transistor_BJT:PN2222A Q5
U 1 1 5F6726F4
P 7250 4050
F 0 "Q5" H 7440 4096 50  0000 L CNN
F 1 "2N2222A" H 7440 4005 50  0000 L CNN
F 2 "Package_TO_SOT_THT:TO-18-3" H 7450 3975 50  0001 L CIN
F 3 "http://www.fairchildsemi.com/ds/PN/PN2222A.pdf" H 7250 4050 50  0001 L CNN
F 4 "Q" H 7250 4050 50  0001 C CNN "Spice_Primitive"
F 5 "2N2222" H 7250 4050 50  0001 C CNN "Spice_Model"
F 6 "Y" H 7250 4050 50  0001 C CNN "Spice_Netlist_Enabled"
F 7 "2N2222.lib" H 7250 4050 50  0001 C CNN "Spice_Lib_File"
F 8 "3 2 1" H 7250 4050 50  0001 C CNN "Spice_Node_Sequence"
	1    7250 4050
	1    0    0    -1  
$EndComp
$Comp
L Device:R R12
U 1 1 5F6726F7
P 7350 4600
F 0 "R12" H 7420 4646 50  0000 L CNN
F 1 "10k" H 7420 4555 50  0000 L CNN
F 2 "Resistor_THT:R_Axial_DIN0207_L6.3mm_D2.5mm_P10.16mm_Horizontal" V 7280 4600 50  0001 C CNN
F 3 "~" H 7350 4600 50  0001 C CNN
	1    7350 4600
	1    0    0    -1  
$EndComp
Wire Wire Line
	7350 4750 7350 4950
Wire Wire Line
	7350 4250 7350 4350
Wire Wire Line
	6800 3650 6800 4050
Wire Wire Line
	7050 4050 6800 4050
Connection ~ 6800 4050
Wire Wire Line
	6800 4050 6800 4350
Wire Wire Line
	8100 3750 7350 3750
Wire Wire Line
	7350 3750 7350 3850
Text HLabel 8100 3750 2    50   Output ~ 0
tone
Text HLabel 4350 4050 0    50   Input ~ 0
osc_bias
$Comp
L power:GND2 #PWR024
U 1 1 5F6726F8
P 5000 4950
F 0 "#PWR024" H 5000 4700 50  0001 C CNN
F 1 "GND2" H 5005 4777 50  0000 C CNN
F 2 "" H 5000 4950 50  0001 C CNN
F 3 "" H 5000 4950 50  0001 C CNN
	1    5000 4950
	1    0    0    -1  
$EndComp
$Comp
L power:GND2 #PWR026
U 1 1 5F6E959B
P 6800 4950
F 0 "#PWR026" H 6800 4700 50  0001 C CNN
F 1 "GND2" H 6805 4777 50  0000 C CNN
F 2 "" H 6800 4950 50  0001 C CNN
F 3 "" H 6800 4950 50  0001 C CNN
	1    6800 4950
	1    0    0    -1  
$EndComp
$Comp
L power:GND2 #PWR027
U 1 1 5F6726FA
P 7350 4950
F 0 "#PWR027" H 7350 4700 50  0001 C CNN
F 1 "GND2" H 7355 4777 50  0000 C CNN
F 2 "" H 7350 4950 50  0001 C CNN
F 3 "" H 7350 4950 50  0001 C CNN
	1    7350 4950
	1    0    0    -1  
$EndComp
Wire Wire Line
	4700 4050 4350 4050
$Comp
L Device:C C10
U 1 1 5F69FB79
P 7750 4600
F 0 "C10" V 7498 4600 50  0000 C CNN
F 1 "56n" V 7589 4600 50  0000 C CNN
F 2 "Capacitor_THT:C_Rect_L7.0mm_W6.0mm_P5.00mm" H 7788 4450 50  0001 C CNN
F 3 "~" H 7750 4600 50  0001 C CNN
	1    7750 4600
	-1   0    0    1   
$EndComp
$Comp
L power:GND2 #PWR028
U 1 1 5F69FF9A
P 7750 4950
F 0 "#PWR028" H 7750 4700 50  0001 C CNN
F 1 "GND2" H 7755 4777 50  0000 C CNN
F 2 "" H 7750 4950 50  0001 C CNN
F 3 "" H 7750 4950 50  0001 C CNN
	1    7750 4950
	1    0    0    -1  
$EndComp
Wire Wire Line
	7350 4350 7750 4350
Wire Wire Line
	7750 4350 7750 4450
Connection ~ 7350 4350
Wire Wire Line
	7350 4350 7350 4450
Wire Wire Line
	7750 4750 7750 4950
$EndSCHEMATC
