EESchema Schematic File Version 4
EELAYER 30 0
EELAYER END
$Descr A4 11693 8268
encoding utf-8
Sheet 2 3
Title ""
Date ""
Rev ""
Comp ""
Comment1 ""
Comment2 ""
Comment3 ""
Comment4 ""
$EndDescr
$Comp
L Transistor_BJT:PN2222A Q2
U 1 1 5F666068
P 4900 4050
F 0 "Q2" H 5090 4096 50  0000 L CNN
F 1 "2N2222A" H 5090 4005 50  0000 L CNN
F 2 "Package_TO_SOT_THT:TO-18-3" H 5100 3975 50  0001 L CIN
F 3 "http://www.fairchildsemi.com/ds/PN/PN2222A.pdf" H 4900 4050 50  0001 L CNN
F 4 "Q" H 4900 4050 50  0001 C CNN "Spice_Primitive"
F 5 "2N2222" H 4900 4050 50  0001 C CNN "Spice_Model"
F 6 "Y" H 4900 4050 50  0001 C CNN "Spice_Netlist_Enabled"
F 7 "2N2222.lib" H 4900 4050 50  0001 C CNN "Spice_Lib_File"
F 8 "3 2 1" H 4900 4050 50  0001 C CNN "Spice_Node_Sequence"
	1    4900 4050
	1    0    0    -1  
$EndComp
$Comp
L power:+24V #PWR016
U 1 1 5F66C75A
P 5000 3250
F 0 "#PWR016" H 5000 3100 50  0001 C CNN
F 1 "+24V" H 5015 3423 50  0000 C CNN
F 2 "" H 5000 3250 50  0001 C CNN
F 3 "" H 5000 3250 50  0001 C CNN
	1    5000 3250
	1    0    0    -1  
$EndComp
Wire Wire Line
	5000 4750 5000 4850
$Comp
L Device:L L1
U 1 1 5F66DE15
P 5000 3500
F 0 "L1" H 5052 3546 50  0000 L CNN
F 1 "120m" H 5052 3455 50  0000 L CNN
F 2 "Inductor_THT:L_Radial_D10.5mm_P5.00mm_Abacron_AISR-01" H 5000 3500 50  0001 C CNN
F 3 "~" H 5000 3500 50  0001 C CNN
	1    5000 3500
	1    0    0    -1  
$EndComp
$Comp
L Device:C C3
U 1 1 5F66E6AD
P 5700 4050
F 0 "C3" H 5815 4096 50  0000 L CNN
F 1 "2.2u" H 5815 4005 50  0000 L CNN
F 2 "Capacitor_THT:C_Rect_L13.0mm_W6.0mm_P10.00mm_FKS3_FKP3_MKS4" H 5738 3900 50  0001 C CNN
F 3 "~" H 5700 4050 50  0001 C CNN
	1    5700 4050
	1    0    0    -1  
$EndComp
$Comp
L Device:C C4
U 1 1 5F66ED7A
P 5700 4600
F 0 "C4" H 5815 4646 50  0000 L CNN
F 1 "2.2u" H 5815 4555 50  0000 L CNN
F 2 "Capacitor_THT:C_Rect_L13.0mm_W6.0mm_P10.00mm_FKS3_FKP3_MKS4" H 5738 4450 50  0001 C CNN
F 3 "~" H 5700 4600 50  0001 C CNN
	1    5700 4600
	1    0    0    -1  
$EndComp
Wire Wire Line
	5700 4750 5700 4850
Wire Wire Line
	5700 4450 5700 4350
Wire Wire Line
	5000 4250 5000 4350
Wire Wire Line
	5700 4350 5000 4350
Connection ~ 5700 4350
Wire Wire Line
	5700 4350 5700 4200
Connection ~ 5000 4350
Wire Wire Line
	5000 4350 5000 4450
Wire Wire Line
	5000 3850 5000 3750
Wire Wire Line
	5000 3750 5700 3750
Wire Wire Line
	5700 3750 5700 3900
Connection ~ 5000 3750
Wire Wire Line
	5000 3750 5000 3650
Wire Wire Line
	5000 3250 5000 3350
Wire Wire Line
	4100 4050 4600 4050
Wire Wire Line
	5700 4350 6300 4350
Wire Wire Line
	5700 4850 5000 4850
Wire Wire Line
	5000 4950 5000 4850
Connection ~ 5000 4850
$Comp
L Device:D D1
U 1 1 5F68568C
P 4100 4300
F 0 "D1" V 4146 4220 50  0000 R CNN
F 1 "1N4148" V 4055 4220 50  0000 R CNN
F 2 "Diode_THT:D_DO-35_SOD27_P7.62mm_Horizontal" H 4100 4300 50  0001 C CNN
F 3 "~" H 4100 4300 50  0001 C CNN
F 4 "X" H 4100 4300 50  0001 C CNN "Spice_Primitive"
F 5 "1N4148" H 4100 4300 50  0001 C CNN "Spice_Model"
F 6 "Y" H 4100 4300 50  0001 C CNN "Spice_Netlist_Enabled"
F 7 "1N4148.lib" H 4100 4300 50  0001 C CNN "Spice_Lib_File"
F 8 "2 1" H 4100 4300 50  0001 C CNN "Spice_Node_Sequence"
	1    4100 4300
	0    -1   -1   0   
$EndComp
Wire Wire Line
	4100 4050 4100 4150
Wire Wire Line
	4100 4450 4100 4550
$Comp
L Device:R R3
U 1 1 5F686839
P 4100 3500
F 0 "R3" H 4170 3546 50  0000 L CNN
F 1 "47k" H 4170 3455 50  0000 L CNN
F 2 "Resistor_THT:R_Axial_DIN0207_L6.3mm_D2.5mm_P10.16mm_Horizontal" V 4030 3500 50  0001 C CNN
F 3 "~" H 4100 3500 50  0001 C CNN
	1    4100 3500
	1    0    0    -1  
$EndComp
Wire Wire Line
	4100 3650 4100 4050
Connection ~ 4100 4050
$Comp
L power:+24V #PWR014
U 1 1 5F686FDD
P 4100 3250
F 0 "#PWR014" H 4100 3100 50  0001 C CNN
F 1 "+24V" H 4115 3423 50  0000 C CNN
F 2 "" H 4100 3250 50  0001 C CNN
F 3 "" H 4100 3250 50  0001 C CNN
	1    4100 3250
	1    0    0    -1  
$EndComp
Wire Wire Line
	4100 3250 4100 3350
Wire Wire Line
	4100 4850 4100 4950
$Comp
L Device:D D2
U 1 1 5F68A8A0
P 4100 4700
F 0 "D2" V 4146 4620 50  0000 R CNN
F 1 "1N4148" V 4055 4620 50  0000 R CNN
F 2 "Diode_THT:D_DO-35_SOD27_P7.62mm_Horizontal" H 4100 4700 50  0001 C CNN
F 3 "~" H 4100 4700 50  0001 C CNN
F 4 "X" H 4100 4700 50  0001 C CNN "Spice_Primitive"
F 5 "1N4148" H 4100 4700 50  0001 C CNN "Spice_Model"
F 6 "Y" H 4100 4700 50  0001 C CNN "Spice_Netlist_Enabled"
F 7 "1N4148.lib" H 4100 4700 50  0001 C CNN "Spice_Lib_File"
F 8 "2 1" H 4100 4700 50  0001 C CNN "Spice_Node_Sequence"
	1    4100 4700
	0    -1   -1   0   
$EndComp
$Comp
L Device:R R4
U 1 1 5F6726EB
P 5000 4600
F 0 "R4" H 5070 4646 50  0000 L CNN
F 1 "3.9k" H 5070 4555 50  0000 L CNN
F 2 "Resistor_THT:R_Axial_DIN0207_L6.3mm_D2.5mm_P10.16mm_Horizontal" V 4930 4600 50  0001 C CNN
F 3 "~" H 5000 4600 50  0001 C CNN
	1    5000 4600
	1    0    0    -1  
$EndComp
$Comp
L Device:R R5
U 1 1 5F68E916
P 6800 3500
F 0 "R5" H 6870 3546 50  0000 L CNN
F 1 "750k" H 6870 3455 50  0000 L CNN
F 2 "Resistor_THT:R_Axial_DIN0207_L6.3mm_D2.5mm_P10.16mm_Horizontal" V 6730 3500 50  0001 C CNN
F 3 "~" H 6800 3500 50  0001 C CNN
	1    6800 3500
	1    0    0    -1  
$EndComp
$Comp
L Device:C C5
U 1 1 5F6726F1
P 6450 4350
F 0 "C5" V 6198 4350 50  0000 C CNN
F 1 "1u" V 6289 4350 50  0000 C CNN
F 2 "Capacitor_THT:C_Rect_L7.0mm_W6.0mm_P5.00mm" H 6488 4200 50  0001 C CNN
F 3 "~" H 6450 4350 50  0001 C CNN
	1    6450 4350
	0    1    1    0   
$EndComp
$Comp
L Device:R R6
U 1 1 5F692F48
P 6800 4600
F 0 "R6" H 6870 4646 50  0000 L CNN
F 1 "68k" H 6870 4555 50  0000 L CNN
F 2 "Resistor_THT:R_Axial_DIN0207_L6.3mm_D2.5mm_P10.16mm_Horizontal" V 6730 4600 50  0001 C CNN
F 3 "~" H 6800 4600 50  0001 C CNN
	1    6800 4600
	1    0    0    -1  
$EndComp
Wire Wire Line
	6600 4350 6800 4350
Wire Wire Line
	6800 4350 6800 4450
Connection ~ 6800 4350
Wire Wire Line
	6800 4950 6800 4750
$Comp
L power:+24V #PWR018
U 1 1 5F694969
P 6800 3250
F 0 "#PWR018" H 6800 3100 50  0001 C CNN
F 1 "+24V" H 6815 3423 50  0000 C CNN
F 2 "" H 6800 3250 50  0001 C CNN
F 3 "" H 6800 3250 50  0001 C CNN
	1    6800 3250
	1    0    0    -1  
$EndComp
Wire Wire Line
	6800 3250 6800 3350
$Comp
L Transistor_BJT:PN2222A Q3
U 1 1 5F699758
P 7250 4050
F 0 "Q3" H 7440 4096 50  0000 L CNN
F 1 "2N2222A" H 7440 4005 50  0000 L CNN
F 2 "Package_TO_SOT_THT:TO-18-3" H 7450 3975 50  0001 L CIN
F 3 "http://www.fairchildsemi.com/ds/PN/PN2222A.pdf" H 7250 4050 50  0001 L CNN
F 4 "Q" H 7250 4050 50  0001 C CNN "Spice_Primitive"
F 5 "2N2222" H 7250 4050 50  0001 C CNN "Spice_Model"
F 6 "Y" H 7250 4050 50  0001 C CNN "Spice_Netlist_Enabled"
F 7 "2N2222.lib" H 7250 4050 50  0001 C CNN "Spice_Lib_File"
F 8 "3 2 1" H 7250 4050 50  0001 C CNN "Spice_Node_Sequence"
	1    7250 4050
	1    0    0    -1  
$EndComp
$Comp
L power:+24V #PWR020
U 1 1 5F6A0652
P 7350 3250
F 0 "#PWR020" H 7350 3100 50  0001 C CNN
F 1 "+24V" H 7365 3423 50  0000 C CNN
F 2 "" H 7350 3250 50  0001 C CNN
F 3 "" H 7350 3250 50  0001 C CNN
	1    7350 3250
	1    0    0    -1  
$EndComp
Wire Wire Line
	7350 3350 7350 3250
$Comp
L Device:R R8
U 1 1 5F6A7652
P 7350 4600
F 0 "R8" H 7420 4646 50  0000 L CNN
F 1 "10k" H 7420 4555 50  0000 L CNN
F 2 "Resistor_THT:R_Axial_DIN0207_L6.3mm_D2.5mm_P10.16mm_Horizontal" V 7280 4600 50  0001 C CNN
F 3 "~" H 7350 4600 50  0001 C CNN
	1    7350 4600
	1    0    0    -1  
$EndComp
Wire Wire Line
	7350 4750 7350 4950
Wire Wire Line
	7350 4250 7350 4350
Wire Wire Line
	6800 3650 6800 4050
Wire Wire Line
	7350 3650 7350 3750
Wire Wire Line
	7050 4050 6800 4050
Connection ~ 6800 4050
Wire Wire Line
	6800 4050 6800 4350
Wire Wire Line
	8100 3750 7350 3750
Connection ~ 7350 3750
Wire Wire Line
	7350 3750 7350 3850
Text HLabel 8100 3750 2    50   Output ~ 0
tone
Text HLabel 4600 3250 1    50   Output ~ 0
osc_bias
Wire Wire Line
	4600 3250 4600 4050
Connection ~ 4600 4050
Wire Wire Line
	4600 4050 4700 4050
$Comp
L power:GND2 #PWR015
U 1 1 5F6E76E1
P 4100 4950
F 0 "#PWR015" H 4100 4700 50  0001 C CNN
F 1 "GND2" H 4105 4777 50  0000 C CNN
F 2 "" H 4100 4950 50  0001 C CNN
F 3 "" H 4100 4950 50  0001 C CNN
	1    4100 4950
	1    0    0    -1  
$EndComp
$Comp
L power:GND2 #PWR017
U 1 1 5F6E91CB
P 5000 4950
F 0 "#PWR017" H 5000 4700 50  0001 C CNN
F 1 "GND2" H 5005 4777 50  0000 C CNN
F 2 "" H 5000 4950 50  0001 C CNN
F 3 "" H 5000 4950 50  0001 C CNN
	1    5000 4950
	1    0    0    -1  
$EndComp
$Comp
L power:GND2 #PWR019
U 1 1 5F6726F9
P 6800 4950
F 0 "#PWR019" H 6800 4700 50  0001 C CNN
F 1 "GND2" H 6805 4777 50  0000 C CNN
F 2 "" H 6800 4950 50  0001 C CNN
F 3 "" H 6800 4950 50  0001 C CNN
	1    6800 4950
	1    0    0    -1  
$EndComp
$Comp
L power:GND2 #PWR021
U 1 1 5F6E98BC
P 7350 4950
F 0 "#PWR021" H 7350 4700 50  0001 C CNN
F 1 "GND2" H 7355 4777 50  0000 C CNN
F 2 "" H 7350 4950 50  0001 C CNN
F 3 "" H 7350 4950 50  0001 C CNN
	1    7350 4950
	1    0    0    -1  
$EndComp
$Comp
L Device:C C6
U 1 1 5F69BDF1
P 7750 4600
F 0 "C6" V 7498 4600 50  0000 C CNN
F 1 "68n" V 7589 4600 50  0000 C CNN
F 2 "Capacitor_THT:C_Rect_L7.0mm_W6.0mm_P5.00mm" H 7788 4450 50  0001 C CNN
F 3 "~" H 7750 4600 50  0001 C CNN
	1    7750 4600
	-1   0    0    1   
$EndComp
$Comp
L power:GND2 #PWR022
U 1 1 5F69D830
P 7750 4950
F 0 "#PWR022" H 7750 4700 50  0001 C CNN
F 1 "GND2" H 7755 4777 50  0000 C CNN
F 2 "" H 7750 4950 50  0001 C CNN
F 3 "" H 7750 4950 50  0001 C CNN
	1    7750 4950
	1    0    0    -1  
$EndComp
Wire Wire Line
	7750 4950 7750 4750
Wire Wire Line
	7350 4350 7750 4350
Wire Wire Line
	7750 4350 7750 4450
Connection ~ 7350 4350
Wire Wire Line
	7350 4350 7350 4450
$Comp
L Device:R R7
U 1 1 5F6A0B57
P 7350 3500
F 0 "R7" H 7420 3546 50  0000 L CNN
F 1 "62k" H 7420 3455 50  0000 L CNN
F 2 "Resistor_THT:R_Axial_DIN0207_L6.3mm_D2.5mm_P10.16mm_Horizontal" V 7280 3500 50  0001 C CNN
F 3 "~" H 7350 3500 50  0001 C CNN
	1    7350 3500
	1    0    0    -1  
$EndComp
$EndSCHEMATC
