(module 42TL (layer F.Cu) (tedit 5F671AA8)
  (fp_text reference REF** (at -4.84 0 90) (layer F.SilkS)
    (effects (font (size 1 1) (thickness 0.15)))
  )
  (fp_text value 42TL (at 0 0) (layer F.Fab)
    (effects (font (size 1 1) (thickness 0.15)))
  )
  (fp_line (start 7.5 -2) (end 7.5 -7.5) (layer F.SilkS) (width 0.12))
  (fp_line (start -8 8) (end -8 -8) (layer F.CrtYd) (width 0.05))
  (fp_line (start 8 8) (end -8 8) (layer F.CrtYd) (width 0.05))
  (fp_line (start 8 -8) (end 8 8) (layer F.CrtYd) (width 0.05))
  (fp_line (start -8 -8) (end 8 -8) (layer F.CrtYd) (width 0.05))
  (fp_line (start -7.5 2) (end -7.5 7.5) (layer F.SilkS) (width 0.12))
  (fp_line (start -7.5 -7.5) (end -7.5 -2) (layer F.SilkS) (width 0.12))
  (fp_line (start 7.5 -7.5) (end -7.5 -7.5) (layer F.SilkS) (width 0.12))
  (fp_line (start 7.5 7.5) (end 7.5 2) (layer F.SilkS) (width 0.12))
  (fp_line (start -7.5 7.5) (end 7.5 7.5) (layer F.SilkS) (width 0.12))
  (pad 6 thru_hole circle (at -2.54 -6.096) (size 1.6 1.6) (drill 0.8) (layers *.Cu *.Mask))
  (pad 1 thru_hole circle (at -2.54 6.096) (size 1.6 1.6) (drill 0.8) (layers *.Cu *.Mask))
  (pad 5 thru_hole circle (at 0 -6.096) (size 1.6 1.6) (drill 0.8) (layers *.Cu *.Mask))
  (pad 2 thru_hole circle (at 0 6.096) (size 1.6 1.6) (drill 0.8) (layers *.Cu *.Mask))
  (pad 4 thru_hole circle (at 2.54 -6.096) (size 1.6 1.6) (drill 0.8) (layers *.Cu *.Mask))
  (pad 3 thru_hole circle (at 2.54 6.096) (size 1.6 1.6) (drill 0.8) (layers *.Cu *.Mask))
  (pad 0 thru_hole circle (at 7.35 0) (size 3.6 3.6) (drill 2) (layers *.Cu *.Mask))
  (pad 0 thru_hole circle (at -7.35 0) (size 3.6 3.6) (drill 2) (layers *.Cu *.Mask))
)
